# 3ds Max Wavefront OBJ Exporter v0.97b - (c)2007 guruware
# File Created: 28.03.2018 11:12:45

newmtl Material
	Ns 36.0000
	Ni 1.5000
	d 1.0000
	Tr 0.0000
	Tf 1.0000 1.0000 1.0000 
	illum 2
	Ka 0.2000 0.2000 0.2000
	Kd 1.0000 1.0000 1.0000
	Ks 0.1640 0.1640 0.1640
	Ke 0.0000 0.0000 0.0000
	map_Ka 20140107104706689853.jpg
	map_Kd 20140107104706689853.jpg
