%YAML 1.1
%TAG !u! tag:unity3d.com,2011:
--- !u!74 &7400000
AnimationClip:
  m_ObjectHideFlags: 0
  m_CorrespondingSourceObject: {fileID: 0}
  m_PrefabInstance: {fileID: 0}
  m_PrefabAsset: {fileID: 0}
  m_Name: action
  serializedVersion: 6
  m_Legacy: 0
  m_Compressed: 0
  m_UseHighQualityCurve: 1
  m_RotationCurves:
  - curve:
      serializedVersion: 2
      m_Curve:
      - serializedVersion: 3
        time: 0
        value: {x: -0.50000006, y: -0.49999997, z: 0.49999997, w: 0.5}
        inSlope: {x: 0, y: 0, z: 0, w: 0}
        outSlope: {x: 0, y: 0, z: 0, w: 0}
        tangentMode: 0
        weightedMode: 0
        inWeight: {x: 0.33333334, y: 0.33333334, z: 0.33333334, w: 0.33333334}
        outWeight: {x: 0.33333334, y: 0.33333334, z: 0.33333334, w: 0.33333334}
      - serializedVersion: 3
        time: 0.9583334
        value: {x: -0.50000006, y: -0.49999997, z: 0.49999997, w: 0.5}
        inSlope: {x: 0, y: 0, z: 0, w: 0}
        outSlope: {x: 0, y: 0, z: 0, w: 0}
        tangentMode: 0
        weightedMode: 0
        inWeight: {x: 0.33333334, y: 0.33333334, z: 0.33333334, w: 0.33333334}
        outWeight: {x: 0.33333334, y: 0.33333334, z: 0.33333334, w: 0.33333334}
      m_PreInfinity: 2
      m_PostInfinity: 2
      m_RotationOrder: 4
    path: Armature
  - curve:
      serializedVersion: 2
      m_Curve:
      - serializedVersion: 3
        time: 0
        value: {x: 0.09631347, y: 0.7005168, z: -0.7005167, w: 0.096313484}
        inSlope: {x: 0.01146394, y: -0.0015807152, z: 0.0015807152, w: 0.011463761}
        outSlope: {x: 0.01146394, y: -0.0015807152, z: 0.0015807152, w: 0.011463761}
        tangentMode: 0
        weightedMode: 0
        inWeight: {x: 0.33333334, y: 0.33333334, z: 0.33333334, w: 0.33333334}
        outWeight: {x: 0.33333334, y: 0.33333334, z: 0.33333334, w: 0.33333334}
      - serializedVersion: 3
        time: 0.20833334
        value: {x: 0.10168646, y: 0.69975704, z: -0.699757, w: 0.10168648}
        inSlope: {x: -0.04962097, y: 0.007025959, z: -0.007025959, w: -0.04962097}
        outSlope: {x: -0.04962097, y: 0.007025959, z: -0.007025959, w: -0.04962097}
        tangentMode: 0
        weightedMode: 0
        inWeight: {x: 0.33333334, y: 0.33333334, z: 0.33333334, w: 0.33333334}
        outWeight: {x: 0.33333334, y: 0.33333334, z: 0.33333334, w: 0.33333334}
      - serializedVersion: 3
        time: 0.33333334
        value: {x: 0.064186364, y: 0.70418763, z: -0.7041876, w: 0.06418638}
        inSlope: {x: -0.46678737, y: 0.042546995, z: -0.04254771, w: -0.46678737}
        outSlope: {x: -0.46678737, y: 0.042546995, z: -0.04254771, w: -0.46678737}
        tangentMode: 0
        weightedMode: 0
        inWeight: {x: 0.33333334, y: 0.33333334, z: 0.33333334, w: 0.33333334}
        outWeight: {x: 0.33333334, y: 0.33333334, z: 0.33333334, w: 0.33333334}
      - serializedVersion: 3
        time: 0.4166667
        value: {x: 0.031163292, y: 0.70641977, z: -0.7064197, w: 0.0311633}
        inSlope: {x: -0.21844023, y: 0.011016365, z: -0.01101565, w: -0.2184403}
        outSlope: {x: -0.21844023, y: 0.011016365, z: -0.01101565, w: -0.2184403}
        tangentMode: 0
        weightedMode: 0
        inWeight: {x: 0.33333334, y: 0.33333334, z: 0.33333334, w: 0.33333334}
        outWeight: {x: 0.33333334, y: 0.33333334, z: 0.33333334, w: 0.33333334}
      - serializedVersion: 3
        time: 0.45833334
        value: {x: 0.026509892, y: 0.7066097, z: -0.7066096, w: 0.026509896}
        inSlope: {x: 1.0999517, y: -0.12074664, z: 0.12074664, w: 1.0999517}
        outSlope: {x: 1.0999517, y: -0.12074664, z: 0.12074664, w: 1.0999517}
        tangentMode: 0
        weightedMode: 0
        inWeight: {x: 0.33333334, y: 0.33333334, z: 0.33333334, w: 0.33333334}
        outWeight: {x: 0.33333334, y: 0.33333334, z: 0.33333334, w: 0.33333334}
      - serializedVersion: 3
        time: 0.5
        value: {x: 0.12282591, y: 0.69635755, z: -0.6963575, w: 0.12282592}
        inSlope: {x: 3.6076431, y: -0.9567901, z: 0.9567894, w: 3.6076431}
        outSlope: {x: 3.6076431, y: -0.9567901, z: 0.9567894, w: 3.6076431}
        tangentMode: 0
        weightedMode: 0
        inWeight: {x: 0.33333334, y: 0.33333334, z: 0.33333334, w: 0.33333334}
        outWeight: {x: 0.33333334, y: 0.33333334, z: 0.33333334, w: 0.33333334}
      - serializedVersion: 3
        time: 0.5416667
        value: {x: 0.3271469, y: 0.6268772, z: -0.6268771, w: 0.3271469}
        inSlope: {x: 3.4430408, y: -1.4408312, z: 1.4408312, w: 3.4430418}
        outSlope: {x: 3.4430408, y: -1.4408312, z: 1.4408312, w: 3.4430418}
        tangentMode: 0
        weightedMode: 0
        inWeight: {x: 0.33333334, y: 0.33333334, z: 0.33333334, w: 0.33333334}
        outWeight: {x: 0.33333334, y: 0.33333334, z: 0.33333334, w: 0.33333334}
      - serializedVersion: 3
        time: 0.5833334
        value: {x: 0.40974614, y: 0.5762882, z: -0.57628816, w: 0.4097462}
        inSlope: {x: 0.99119055, y: -0.6070673, z: 0.6070673, w: 0.99119127}
        outSlope: {x: 0.99119055, y: -0.6070673, z: 0.6070673, w: 0.99119127}
        tangentMode: 0
        weightedMode: 0
        inWeight: {x: 0.33333334, y: 0.33333334, z: 0.33333334, w: 0.33333334}
        outWeight: {x: 0.33333334, y: 0.33333334, z: 0.33333334, w: 0.33333334}
      - serializedVersion: 3
        time: 0.625
        value: {x: 0.40974614, y: 0.5762882, z: -0.57628816, w: 0.4097462}
        inSlope: {x: 0, y: 0, z: 0, w: 0}
        outSlope: {x: 0, y: 0, z: 0, w: 0}
        tangentMode: 0
        weightedMode: 0
        inWeight: {x: 0.33333334, y: 0.33333334, z: 0.33333334, w: 0.33333334}
        outWeight: {x: 0.33333334, y: 0.33333334, z: 0.33333334, w: 0.33333334}
      - serializedVersion: 3
        time: 0.9583334
        value: {x: 0.40974614, y: 0.5762882, z: -0.57628816, w: 0.4097462}
        inSlope: {x: 0, y: 0, z: 0, w: 0}
        outSlope: {x: 0, y: 0, z: 0, w: 0}
        tangentMode: 0
        weightedMode: 0
        inWeight: {x: 0.33333334, y: 0.33333334, z: 0.33333334, w: 0.33333334}
        outWeight: {x: 0.33333334, y: 0.33333334, z: 0.33333334, w: 0.33333334}
      m_PreInfinity: 2
      m_PostInfinity: 2
      m_RotationOrder: 4
    path: Armature/Bone
  - curve:
      serializedVersion: 2
      m_Curve:
      - serializedVersion: 3
        time: 0
        value: {x: -0.000000011227615, y: 4.6101404e-16, z: 0.000000014901161, w: 1}
        inSlope: {x: 0, y: 0, z: 0, w: 0}
        outSlope: {x: 0, y: 0, z: 0, w: 0}
        tangentMode: 0
        weightedMode: 0
        inWeight: {x: 0.33333334, y: 0.33333334, z: 0.33333334, w: 0.33333334}
        outWeight: {x: 0.33333334, y: 0.33333334, z: 0.33333334, w: 0.33333334}
      - serializedVersion: 3
        time: 0.9583334
        value: {x: -0.000000011227615, y: 4.6101404e-16, z: 0.000000014901161, w: 1}
        inSlope: {x: 0, y: 0, z: 0, w: 0}
        outSlope: {x: 0, y: 0, z: 0, w: 0}
        tangentMode: 0
        weightedMode: 0
        inWeight: {x: 0.33333334, y: 0.33333334, z: 0.33333334, w: 0.33333334}
        outWeight: {x: 0.33333334, y: 0.33333334, z: 0.33333334, w: 0.33333334}
      m_PreInfinity: 2
      m_PostInfinity: 2
      m_RotationOrder: 4
    path: Armature/Bone/Bone_001
  - curve:
      serializedVersion: 2
      m_Curve:
      - serializedVersion: 3
        time: 0
        value: {x: -1.288053e-14, y: 1.0733775e-15, z: 1.382567e-29, w: 1}
        inSlope: {x: 0, y: 0, z: 0, w: 0}
        outSlope: {x: 0, y: 0, z: 0, w: 0}
        tangentMode: 0
        weightedMode: 0
        inWeight: {x: 0.33333334, y: 0.33333334, z: 0.33333334, w: 0.33333334}
        outWeight: {x: 0.33333334, y: 0.33333334, z: 0.33333334, w: 0.33333334}
      - serializedVersion: 3
        time: 0.9583334
        value: {x: -1.288053e-14, y: 1.0733775e-15, z: 1.382567e-29, w: 1}
        inSlope: {x: 0, y: 0, z: 0, w: 0}
        outSlope: {x: 0, y: 0, z: 0, w: 0}
        tangentMode: 0
        weightedMode: 0
        inWeight: {x: 0.33333334, y: 0.33333334, z: 0.33333334, w: 0.33333334}
        outWeight: {x: 0.33333334, y: 0.33333334, z: 0.33333334, w: 0.33333334}
      m_PreInfinity: 2
      m_PostInfinity: 2
      m_RotationOrder: 4
    path: Armature/Bone/Bone_001/Bone_002
  - curve:
      serializedVersion: 2
      m_Curve:
      - serializedVersion: 3
        time: 0
        value: {x: 5.77704e-15, y: 1.8325958e-16, z: -1.0586979e-30, w: 1}
        inSlope: {x: -3.2044242e-14, y: 2.09438e-16, z: 4.9421206e-30, w: 0}
        outSlope: {x: -3.2044242e-14, y: 2.09438e-16, z: 4.9421206e-30, w: 0}
        tangentMode: 0
        weightedMode: 0
        inWeight: {x: 0.33333334, y: 0.33333334, z: 0.33333334, w: 0.33333334}
        outWeight: {x: 0.33333334, y: 0.33333334, z: 0.33333334, w: 0.33333334}
      - serializedVersion: 3
        time: 0.5416667
        value: {x: 7.1034898e-15, y: -3.3266426e-22, z: -5.2940842e-15, w: 1}
        inSlope: {x: 2.7227146e-15, y: -8.377575e-15, z: 0.00000015317765, w: 0}
        outSlope: {x: 2.7227146e-15, y: -8.377575e-15, z: 0.00000015317765, w: 0}
        tangentMode: 0
        weightedMode: 0
        inWeight: {x: 0.33333334, y: 0.33333334, z: 0.33333334, w: 0.33333334}
        outWeight: {x: 0.33333334, y: 0.33333334, z: 0.33333334, w: 0.33333334}
      - serializedVersion: 3
        time: 0.625
        value: {x: 5.7854006e-15, y: -5.858316e-16, z: 0.013386451, w: 0.9999104}
        inSlope: {x: -6.672767e-14, y: -2.3403863e-14, z: 0.5043819, w: -0.010604378}
        outSlope: {x: -6.672767e-14, y: -2.3403863e-14, z: 0.5043819, w: -0.010604378}
        tangentMode: 0
        weightedMode: 0
        inWeight: {x: 0.33333334, y: 0.33333334, z: 0.33333334, w: 0.33333334}
        outWeight: {x: 0.33333334, y: 0.33333334, z: 0.33333334, w: 0.33333334}
      - serializedVersion: 3
        time: 0.7083334
        value: {x: -5.757121e-12, y: -0.0000000041871453, z: 0.055402685, w: 0.9984641}
        inSlope: {x: -6.9098206e-11, y: -0.00000005024993, z: 0.12171165, w: -0.0057399217}
        outSlope: {x: -6.9098206e-11, y: -0.00000005024993, z: 0.12171165, w: -0.0057399217}
        tangentMode: 0
        weightedMode: 0
        inWeight: {x: 0.33333334, y: 0.33333334, z: 0.33333334, w: 0.33333334}
        outWeight: {x: 0.33333334, y: 0.33333334, z: 0.33333334, w: 0.33333334}
      - serializedVersion: 3
        time: 0.8333334
        value: {x: 2.4585253e-16, y: -6.5347067e-16, z: 0.042031817, w: 0.9991163}
        inSlope: {x: 6.916852e-11, y: 0.00000005025721, z: 0.00000010058284, w: -0.0000000024447218}
        outSlope: {x: 6.916852e-11, y: 0.00000005025721, z: 0.00000010058284, w: -0.0000000024447218}
        tangentMode: 0
        weightedMode: 0
        inWeight: {x: 0.33333334, y: 0.33333334, z: 0.33333334, w: 0.33333334}
        outWeight: {x: 0.33333334, y: 0.33333334, z: 0.33333334, w: 0.33333334}
      - serializedVersion: 3
        time: 0.9583334
        value: {x: -5.757119e-12, y: -0.0000000041871453, z: 0.05540269, w: 0.9984641}
        inSlope: {x: -1.3831648e-10, y: -0.000000100491356, z: 0.07747727, w: -0.0041728}
        outSlope: {x: -1.3831648e-10, y: -0.000000100491356, z: 0.07747727, w: -0.0041728}
        tangentMode: 0
        weightedMode: 0
        inWeight: {x: 0.33333334, y: 0.33333334, z: 0.33333334, w: 0.33333334}
        outWeight: {x: 0.33333334, y: 0.33333334, z: 0.33333334, w: 0.33333334}
      m_PreInfinity: 2
      m_PostInfinity: 2
      m_RotationOrder: 4
    path: Armature/Bone/Bone_001/Bone_002/Bone_003
  - curve:
      serializedVersion: 2
      m_Curve:
      - serializedVersion: 3
        time: 0
        value: {x: 9.2459575e-15, y: -0.0000000040699932, z: 0.053908687, w: 0.9985459}
        inSlope: {x: 1.8046254e-14, y: 4.2632564e-14, z: -0.00000035762787, w: 0}
        outSlope: {x: 1.8046254e-14, y: 4.2632564e-14, z: -0.00000035762787, w: 0}
        tangentMode: 0
        weightedMode: 0
        inWeight: {x: 0.33333334, y: 0.33333334, z: 0.33333334, w: 0.33333334}
        outWeight: {x: 0.33333334, y: 0.33333334, z: 0.33333334, w: 0.33333334}
      - serializedVersion: 3
        time: 0.4166667
        value: {x: 1.1684679e-14, y: -0.000000004069994, z: 0.05390869, w: 0.9985459}
        inSlope: {x: -7.9599996e-14, y: -2.1316272e-14, z: 0.0000001788139, w: 0}
        outSlope: {x: -7.9599996e-14, y: -2.1316272e-14, z: 0.0000001788139, w: 0}
        tangentMode: 0
        weightedMode: 0
        inWeight: {x: 0.33333334, y: 0.33333334, z: 0.33333334, w: 0.33333334}
        outWeight: {x: 0.33333334, y: 0.33333334, z: 0.33333334, w: 0.33333334}
      - serializedVersion: 3
        time: 0.5
        value: {x: 7.818562e-15, y: -0.000000004070373, z: 0.04621854, w: 0.99893135}
        inSlope: {x: 6.1147525e-14, y: -4.556356e-12, z: -0.28988183, w: 0.012137172}
        outSlope: {x: 6.1147525e-14, y: -4.556356e-12, z: -0.28988183, w: 0.012137172}
        tangentMode: 0
        weightedMode: 0
        inWeight: {x: 0.33333334, y: 0.33333334, z: 0.33333334, w: 0.33333334}
        outWeight: {x: 0.33333334, y: 0.33333334, z: 0.33333334, w: 0.33333334}
      - serializedVersion: 3
        time: 0.5833334
        value: {x: 3.4554766e-12, y: -0.0000000016627544, z: 0.022054631, w: 0.99975675}
        inSlope: {x: 4.138926e-11, y: 0.000000028880155, z: 0.13496202, w: -0.0047772015}
        outSlope: {x: 4.138926e-11, y: 0.000000028880155, z: 0.13496202, w: -0.0047772015}
        tangentMode: 0
        weightedMode: 0
        inWeight: {x: 0.33333334, y: 0.33333334, z: 0.33333334, w: 0.33333334}
        outWeight: {x: 0.33333334, y: 0.33333334, z: 0.33333334, w: 0.33333334}
      - serializedVersion: 3
        time: 0.625
        value: {x: 3.4614924e-12, y: -0.000000001663693, z: 0.040998686, w: 0.9991592}
        inSlope: {x: 2.4285353e-14, y: -1.13056335e-11, z: 0.7134636, w: -0.0370109}
        outSlope: {x: 2.4285353e-14, y: -1.13056335e-11, z: 0.7134636, w: -0.0370109}
        tangentMode: 0
        weightedMode: 0
        inWeight: {x: 0.33333334, y: 0.33333334, z: 0.33333334, w: 0.33333334}
        outWeight: {x: 0.33333334, y: 0.33333334, z: 0.33333334, w: 0.33333334}
      - serializedVersion: 3
        time: 0.6666667
        value: {x: 3.4575003e-12, y: -0.0000000016636965, z: 0.08150993, w: 0.9966725}
        inSlope: {x: -1.0195128e-10, y: -0.000000071022576, z: 0.7126335, w: -0.05052636}
        outSlope: {x: -1.0195128e-10, y: -0.000000071022576, z: 0.7126335, w: -0.05052636}
        tangentMode: 0
        weightedMode: 0
        inWeight: {x: 0.33333334, y: 0.33333334, z: 0.33333334, w: 0.33333334}
        outWeight: {x: 0.33333334, y: 0.33333334, z: 0.33333334, w: 0.33333334}
      - serializedVersion: 3
        time: 0.8333334
        value: {x: 3.4575615e-12, y: -0.0000000016636937, z: 0.08150993, w: 0.9966725}
        inSlope: {x: 1.0190128e-10, y: 0.00000007106655, z: 0.000000078231096, w: -0.000000006519258}
        outSlope: {x: 1.0190128e-10, y: 0.00000007106655, z: 0.000000078231096, w: -0.000000006519258}
        tangentMode: 0
        weightedMode: 0
        inWeight: {x: 0.33333334, y: 0.33333334, z: 0.33333334, w: 0.33333334}
        outWeight: {x: 0.33333334, y: 0.33333334, z: 0.33333334, w: 0.33333334}
      - serializedVersion: 3
        time: 0.9583334
        value: {x: -5.0344507e-12, y: -0.000000007582244, z: 0.10038485, w: 0.9949487}
        inSlope: {x: -2.038513e-10, y: -0.00000014206087, z: 0.10930068, w: -0.010776037}
        outSlope: {x: -2.038513e-10, y: -0.00000014206087, z: 0.10930068, w: -0.010776037}
        tangentMode: 0
        weightedMode: 0
        inWeight: {x: 0.33333334, y: 0.33333334, z: 0.33333334, w: 0.33333334}
        outWeight: {x: 0.33333334, y: 0.33333334, z: 0.33333334, w: 0.33333334}
      m_PreInfinity: 2
      m_PostInfinity: 2
      m_RotationOrder: 4
    path: Armature/Bone/Bone_001/Bone_002/Bone_003/Bone_004
  - curve:
      serializedVersion: 2
      m_Curve:
      - serializedVersion: 3
        time: 0
        value: {x: -4.851805e-15, y: -0.0000000063451715, z: 0.084044345, w: 0.99646205}
        inSlope: {x: 1.6758211e-14, y: 4.2632564e-14, z: 0, w: 0}
        outSlope: {x: 1.6758211e-14, y: 4.2632564e-14, z: 0, w: 0}
        tangentMode: 0
        weightedMode: 0
        inWeight: {x: 0.33333334, y: 0.33333334, z: 0.33333334, w: 0.33333334}
        outWeight: {x: 0.33333334, y: 0.33333334, z: 0.33333334, w: 0.33333334}
      - serializedVersion: 3
        time: 0.4166667
        value: {x: -5.4405998e-15, y: -0.000000006345171, z: 0.08404433, w: 0.99646205}
        inSlope: {x: -1.797167e-14, y: 5.3290976e-15, z: -0.00000026822113, w: 0}
        outSlope: {x: -1.797167e-14, y: 5.3290976e-15, z: -0.00000026822113, w: 0}
        tangentMode: 0
        weightedMode: 0
        inWeight: {x: 0.33333334, y: 0.33333334, z: 0.33333334, w: 0.33333334}
        outWeight: {x: 0.33333334, y: 0.33333334, z: 0.33333334, w: 0.33333334}
      - serializedVersion: 3
        time: 0.5
        value: {x: -4.6910853e-15, y: -0.000000006351313, z: 0.05929767, w: 0.99824035}
        inSlope: {x: -3.6397026e-14, y: -7.371705e-11, z: -0.9345053, w: 0.042227264}
        outSlope: {x: -3.6397026e-14, y: -7.371705e-11, z: -0.9345053, w: 0.042227264}
        tangentMode: 0
        weightedMode: 0
        inWeight: {x: 0.33333334, y: 0.33333334, z: 0.33333334, w: 0.33333334}
        outWeight: {x: 0.33333334, y: 0.33333334, z: 0.33333334, w: 0.33333334}
      - serializedVersion: 3
        time: 0.5833334
        value: {x: 1.2021653e-11, y: 0.000000001413258, z: -0.018641118, w: 0.99982625}
        inSlope: {x: 1.4490022e-10, y: 0.00000009323541, z: 0.2729647, w: -0.0047893543}
        outSlope: {x: 1.4490022e-10, y: 0.00000009323541, z: 0.2729647, w: -0.0047893543}
        tangentMode: 0
        weightedMode: 0
        inWeight: {x: 0.33333334, y: 0.33333334, z: 0.33333334, w: 0.33333334}
        outWeight: {x: 0.33333334, y: 0.33333334, z: 0.33333334, w: 0.33333334}
      - serializedVersion: 3
        time: 0.625
        value: {x: 1.2068754e-11, y: 0.0000000014183105, z: 0.02891583, w: 0.9995819}
        inSlope: {x: 4.87954e-13, y: 6.057427e-11, z: 1.7935882, w: -0.101048425}
        outSlope: {x: 4.87954e-13, y: 6.057427e-11, z: 1.7935882, w: -0.101048425}
        tangentMode: 0
        weightedMode: 0
        inWeight: {x: 0.33333334, y: 0.33333334, z: 0.33333334, w: 0.33333334}
        outWeight: {x: 0.33333334, y: 0.33333334, z: 0.33333334, w: 0.33333334}
      - serializedVersion: 3
        time: 0.6666667
        value: {x: 1.20623156e-11, y: 0.0000000014183058, z: 0.13082457, w: 0.99140555}
        inSlope: {x: -2.776905e-10, y: -0.000000178178, z: 1.7867553, w: -0.18620887}
        outSlope: {x: -2.776905e-10, y: -0.000000178178, z: 1.7867553, w: -0.18620887}
        tangentMode: 0
        weightedMode: 0
        inWeight: {x: 0.33333334, y: 0.33333334, z: 0.33333334, w: 0.33333334}
        outWeight: {x: 0.33333334, y: 0.33333334, z: 0.33333334, w: 0.33333334}
      - serializedVersion: 3
        time: 0.7083334
        value: {x: -1.1072132e-11, y: -0.000000013429863, z: 0.17781219, w: 0.98406446}
        inSlope: {x: -2.7783556e-10, y: -0.0000001783502, z: 0.42843258, w: -0.06442445}
        outSlope: {x: -2.7783556e-10, y: -0.0000001783502, z: 0.42843258, w: -0.06442445}
        tangentMode: 0
        weightedMode: 0
        inWeight: {x: 0.33333334, y: 0.33333334, z: 0.33333334, w: 0.33333334}
        outWeight: {x: 0.33333334, y: 0.33333334, z: 0.33333334, w: 0.33333334}
      - serializedVersion: 3
        time: 0.7916667
        value: {x: -1.11077016e-11, y: -0.000000013469057, z: 0.14223485, w: 0.98983294}
        inSlope: {x: 2.7783986e-10, y: 0.00000017835029, z: -0.42843297, w: 0.064424485}
        outSlope: {x: 2.7783986e-10, y: 0.00000017835029, z: -0.42843297, w: 0.064424485}
        tangentMode: 0
        weightedMode: 0
        inWeight: {x: 0.33333334, y: 0.33333334, z: 0.33333334, w: 0.33333334}
        outWeight: {x: 0.33333334, y: 0.33333334, z: 0.33333334, w: 0.33333334}
      - serializedVersion: 3
        time: 0.875
        value: {x: 1.2053207e-11, y: 0.000000001417381, z: 0.14223485, w: 0.98983294}
        inSlope: {x: -3.28685e-13, y: -4.264322e-11, z: 0.428433, w: -0.064424515}
        outSlope: {x: -3.28685e-13, y: -4.264322e-11, z: 0.428433, w: -0.064424515}
        tangentMode: 0
        weightedMode: 0
        inWeight: {x: 0.33333334, y: 0.33333334, z: 0.33333334, w: 0.33333334}
        outWeight: {x: 0.33333334, y: 0.33333334, z: 0.33333334, w: 0.33333334}
      - serializedVersion: 3
        time: 0.9166667
        value: {x: 1.2035285e-11, y: 0.0000000014147592, z: 0.1665273, w: 0.98603684}
        inSlope: {x: -2.775042e-10, y: -0.00000017816686, z: 0.42692807, w: -0.069221705}
        outSlope: {x: -2.775042e-10, y: -0.00000017816686, z: 0.42692807, w: -0.069221705}
        tangentMode: 0
        weightedMode: 0
        inWeight: {x: 0.33333334, y: 0.33333334, z: 0.33333334, w: 0.33333334}
        outWeight: {x: 0.33333334, y: 0.33333334, z: 0.33333334, w: 0.33333334}
      - serializedVersion: 3
        time: 0.9583334
        value: {x: -1.1072153e-11, y: -0.000000013429864, z: 0.1778122, w: 0.98406446}
        inSlope: {x: -5.545782e-10, y: -0.0000003562708, z: 0.27083755, w: -0.047337033}
        outSlope: {x: -5.545782e-10, y: -0.0000003562708, z: 0.27083755, w: -0.047337033}
        tangentMode: 0
        weightedMode: 0
        inWeight: {x: 0.33333334, y: 0.33333334, z: 0.33333334, w: 0.33333334}
        outWeight: {x: 0.33333334, y: 0.33333334, z: 0.33333334, w: 0.33333334}
      m_PreInfinity: 2
      m_PostInfinity: 2
      m_RotationOrder: 4
    path: Armature/Bone/Bone_001/Bone_002/Bone_003/Bone_004/Bone_005
  m_CompressedRotationCurves: []
  m_EulerCurves: []
  m_PositionCurves:
  - curve:
      serializedVersion: 2
      m_Curve:
      - serializedVersion: 3
        time: 0
        value: {x: 8.228041, y: 1.4086756, z: -0.000000061575165}
        inSlope: {x: 0, y: 0, z: 0}
        outSlope: {x: 0, y: 0, z: 0}
        tangentMode: 0
        weightedMode: 0
        inWeight: {x: 0.33333334, y: 0.33333334, z: 0.33333334}
        outWeight: {x: 0.33333334, y: 0.33333334, z: 0.33333334}
      - serializedVersion: 3
        time: 0.9583333
        value: {x: 8.228041, y: 1.4086756, z: -0.000000061575165}
        inSlope: {x: 0, y: 0, z: 0}
        outSlope: {x: 0, y: 0, z: 0}
        tangentMode: 0
        weightedMode: 0
        inWeight: {x: 0.33333334, y: 0.33333334, z: 0.33333334}
        outWeight: {x: 0.33333334, y: 0.33333334, z: 0.33333334}
      m_PreInfinity: 2
      m_PostInfinity: 2
      m_RotationOrder: 4
    path: Armature
  - curve:
      serializedVersion: 2
      m_Curve:
      - serializedVersion: 3
        time: 0
        value: {x: -0, y: 0, z: 0}
        inSlope: {x: 0, y: 0, z: 0}
        outSlope: {x: 0, y: 0, z: 0}
        tangentMode: 0
        weightedMode: 0
        inWeight: {x: 0.33333334, y: 0.33333334, z: 0.33333334}
        outWeight: {x: 0.33333334, y: 0.33333334, z: 0.33333334}
      - serializedVersion: 3
        time: 0.9583333
        value: {x: -0, y: 0, z: 0}
        inSlope: {x: 0, y: 0, z: 0}
        outSlope: {x: 0, y: 0, z: 0}
        tangentMode: 0
        weightedMode: 0
        inWeight: {x: 0.33333334, y: 0.33333334, z: 0.33333334}
        outWeight: {x: 0.33333334, y: 0.33333334, z: 0.33333334}
      m_PreInfinity: 2
      m_PostInfinity: 2
      m_RotationOrder: 4
    path: Armature/Bone
  - curve:
      serializedVersion: 2
      m_Curve:
      - serializedVersion: 3
        time: 0
        value: {x: -3.3621526, y: 0.00000017881393, z: 0}
        inSlope: {x: -0.000011444092, y: 0.0000014305115, z: -1.68e-13}
        outSlope: {x: -0.000011444092, y: 0.0000014305115, z: -1.68e-13}
        tangentMode: 0
        weightedMode: 0
        inWeight: {x: 0.33333334, y: 0.33333334, z: 0.33333334}
        outWeight: {x: 0.33333334, y: 0.33333334, z: 0.33333334}
      - serializedVersion: 3
        time: 0.041666668
        value: {x: -3.362153, y: 0.00000023841858, z: -7e-15}
        inSlope: {x: -0.000011444092, y: 0.0000014305115, z: -1.68e-13}
        outSlope: {x: 0.000011444092, y: -0.0000014305115, z: 2.4000008e-14}
        tangentMode: 0
        weightedMode: 0
        inWeight: {x: 0.33333334, y: 0.33333334, z: 0.33333334}
        outWeight: {x: 0.33333334, y: 0.33333334, z: 0.33333334}
      - serializedVersion: 3
        time: 0.083333336
        value: {x: -3.3621526, y: 0.00000017881393, z: -6e-15}
        inSlope: {x: 0.000011444092, y: -0.0000014305115, z: 2.4000008e-14}
        outSlope: {x: -0.0000057220464, y: -0, z: -7.2000016e-14}
        tangentMode: 0
        weightedMode: 0
        inWeight: {x: 0.33333334, y: 0.33333334, z: 0.33333334}
        outWeight: {x: 0.33333334, y: 0.33333334, z: 0.33333334}
      - serializedVersion: 3
        time: 0.125
        value: {x: -3.3621528, y: 0.00000017881393, z: -9e-15}
        inSlope: {x: -0.0000057220464, y: -0, z: -7.2000016e-14}
        outSlope: {x: -0, y: 0.0000014305114, z: 1.68e-13}
        tangentMode: 0
        weightedMode: 0
        inWeight: {x: 0.33333334, y: 0.33333334, z: 0.33333334}
        outWeight: {x: 0.33333334, y: 0.33333334, z: 0.33333334}
      - serializedVersion: 3
        time: 0.16666667
        value: {x: -3.3621528, y: 0.00000023841858, z: -2e-15}
        inSlope: {x: -0, y: 0.0000014305114, z: 1.68e-13}
        outSlope: {x: 0.0000057220473, y: -0, z: -0}
        tangentMode: 0
        weightedMode: 0
        inWeight: {x: 0.33333334, y: 0.33333334, z: 0.33333334}
        outWeight: {x: 0.33333334, y: 0.33333334, z: 0.33333334}
      - serializedVersion: 3
        time: 0.29166666
        value: {x: -3.3621526, y: 0.00000023841858, z: -5e-15}
        inSlope: {x: 0.0000057220473, y: -0, z: -2.4000003e-14}
        outSlope: {x: -0.000005722043, y: 0.0000014305108, z: 1.6799992e-13}
        tangentMode: 0
        weightedMode: 0
        inWeight: {x: 0.33333334, y: 0.33333334, z: 0.33333334}
        outWeight: {x: 0.33333334, y: 0.33333334, z: 0.33333334}
      - serializedVersion: 3
        time: 0.33333334
        value: {x: -3.3621528, y: 0.00000029802322, z: 2e-15}
        inSlope: {x: -0.000005722043, y: 0.0000014305108, z: 1.6799992e-13}
        outSlope: {x: -0.0000057220473, y: -0.0000014305118, z: -4.8000012e-14}
        tangentMode: 0
        weightedMode: 0
        inWeight: {x: 0.33333334, y: 0.33333334, z: 0.33333334}
        outWeight: {x: 0.33333334, y: 0.33333334, z: 0.33333334}
      - serializedVersion: 3
        time: 0.375
        value: {x: -3.362153, y: 0.00000023841858, z: 0}
        inSlope: {x: -0.0000057220473, y: -0.0000014305118, z: -4.8000012e-14}
        outSlope: {x: 0.0000057220473, y: 0.0000007152559, z: -7.2000016e-14}
        tangentMode: 0
        weightedMode: 0
        inWeight: {x: 0.33333334, y: 0.33333334, z: 0.33333334}
        outWeight: {x: 0.33333334, y: 0.33333334, z: 0.33333334}
      - serializedVersion: 3
        time: 0.41666666
        value: {x: -3.3621528, y: 0.0000002682209, z: -3e-15}
        inSlope: {x: 0.0000057220473, y: 0.0000007152559, z: -7.2000016e-14}
        outSlope: {x: 0.000005722043, y: -0, z: 9.5999956e-14}
        tangentMode: 0
        weightedMode: 0
        inWeight: {x: 0.33333334, y: 0.33333334, z: 0.33333334}
        outWeight: {x: 0.33333334, y: 0.33333334, z: 0.33333334}
      - serializedVersion: 3
        time: 0.45833334
        value: {x: -3.3621526, y: 0.0000002682209, z: 1e-15}
        inSlope: {x: 0.000005722043, y: -0, z: 9.5999956e-14}
        outSlope: {x: -0.0000114440945, y: -0.0000035762796, z: -1.2000002e-13}
        tangentMode: 0
        weightedMode: 0
        inWeight: {x: 0.33333334, y: 0.33333334, z: 0.33333334}
        outWeight: {x: 0.33333334, y: 0.33333334, z: 0.33333334}
      - serializedVersion: 3
        time: 0.5
        value: {x: -3.362153, y: 0.00000011920929, z: -4e-15}
        inSlope: {x: -0.0000114440945, y: -0.0000035762796, z: -1.2000002e-13}
        outSlope: {x: 0.000005722043, y: 0.000005722043, z: 4.319998e-13}
        tangentMode: 0
        weightedMode: 0
        inWeight: {x: 0.33333334, y: 0.33333334, z: 0.33333334}
        outWeight: {x: 0.33333334, y: 0.33333334, z: 0.33333334}
      - serializedVersion: 3
        time: 0.5416667
        value: {x: -3.3621528, y: 0.00000035762787, z: 1.4e-14}
        inSlope: {x: 0.000005722043, y: 0.000005722043, z: 4.319998e-13}
        outSlope: {x: -0, y: -0.0000028610257, z: -3.8400037e-13}
        tangentMode: 0
        weightedMode: 0
        inWeight: {x: 0.33333334, y: 0.33333334, z: 0.33333334}
        outWeight: {x: 0.33333334, y: 0.33333334, z: 0.33333334}
      - serializedVersion: 3
        time: 0.5833333
        value: {x: -3.3621528, y: 0.00000023841858, z: -2e-15}
        inSlope: {x: -0, y: -0.0000028610257, z: -3.8400037e-13}
        outSlope: {x: -0, y: -0, z: -0}
        tangentMode: 0
        weightedMode: 0
        inWeight: {x: 0.33333334, y: 0.33333334, z: 0.33333334}
        outWeight: {x: 0.33333334, y: 0.33333334, z: 0.33333334}
      - serializedVersion: 3
        time: 0.9583333
        value: {x: -3.3621528, y: 0.00000023841858, z: -2e-15}
        inSlope: {x: -0, y: -0, z: -0}
        outSlope: {x: -0, y: -0, z: -0}
        tangentMode: 0
        weightedMode: 0
        inWeight: {x: 0.33333334, y: 0.33333334, z: 0.33333334}
        outWeight: {x: 0.33333334, y: 0.33333334, z: 0.33333334}
      m_PreInfinity: 2
      m_PostInfinity: 2
      m_RotationOrder: 4
    path: Armature/Bone/Bone_001
  - curve:
      serializedVersion: 2
      m_Curve:
      - serializedVersion: 3
        time: 0
        value: {x: -4.650451, y: 0.0000002384186, z: 0}
        inSlope: {x: -0.000022888184, y: 0.0000042915335, z: -4.08e-13}
        outSlope: {x: -0.000022888184, y: 0.0000042915335, z: -4.08e-13}
        tangentMode: 0
        weightedMode: 0
        inWeight: {x: 0.33333334, y: 0.33333334, z: 0.33333334}
        outWeight: {x: 0.33333334, y: 0.33333334, z: 0.33333334}
      - serializedVersion: 3
        time: 0.041666668
        value: {x: -4.650452, y: 0.0000004172325, z: -1.7e-14}
        inSlope: {x: -0.000022888184, y: 0.0000042915335, z: -4.08e-13}
        outSlope: {x: 0.000011444092, y: -0.000005722045, z: -2.4000008e-14}
        tangentMode: 0
        weightedMode: 0
        inWeight: {x: 0.33333334, y: 0.33333334, z: 0.33333334}
        outWeight: {x: 0.33333334, y: 0.33333334, z: 0.33333334}
      - serializedVersion: 3
        time: 0.083333336
        value: {x: -4.6504517, y: 0.00000017881396, z: -1.8e-14}
        inSlope: {x: 0.000011444092, y: -0.000005722045, z: -2.4000008e-14}
        outSlope: {x: -0, y: -1.3642422e-12, z: 3.6000006e-13}
        tangentMode: 0
        weightedMode: 0
        inWeight: {x: 0.33333334, y: 0.33333334, z: 0.33333334}
        outWeight: {x: 0.33333334, y: 0.33333334, z: 0.33333334}
      - serializedVersion: 3
        time: 0.25
        value: {x: -4.650452, y: 0.00000017881393, z: 3e-15}
        inSlope: {x: -0.000011444091, y: 6.8212097e-13, z: 3.1199996e-13}
        outSlope: {x: 0.000022888189, y: 0.0000014305139, z: -2.880001e-13}
        tangentMode: 0
        weightedMode: 0
        inWeight: {x: 0.33333334, y: 0.33333334, z: 0.33333334}
        outWeight: {x: 0.33333334, y: 0.33333334, z: 0.33333334}
      - serializedVersion: 3
        time: 0.29166666
        value: {x: -4.650451, y: 0.00000023841866, z: -9e-15}
        inSlope: {x: 0.000022888189, y: 0.0000014305139, z: -2.880001e-13}
        outSlope: {x: -0.000011444086, y: 0.0000042915303, z: 3.8399983e-13}
        tangentMode: 0
        weightedMode: 0
        inWeight: {x: 0.33333334, y: 0.33333334, z: 0.33333334}
        outWeight: {x: 0.33333334, y: 0.33333334, z: 0.33333334}
      - serializedVersion: 3
        time: 0.33333334
        value: {x: -4.6504517, y: 0.0000004172325, z: 7e-15}
        inSlope: {x: -0.000011444086, y: 0.0000042915303, z: 3.8399983e-13}
        outSlope: {x: -0, y: -0.0000028610236, z: 9.6000024e-14}
        tangentMode: 0
        weightedMode: 0
        inWeight: {x: 0.33333334, y: 0.33333334, z: 0.33333334}
        outWeight: {x: 0.33333334, y: 0.33333334, z: 0.33333334}
      - serializedVersion: 3
        time: 0.375
        value: {x: -4.6504517, y: 0.00000029802322, z: 1.1e-14}
        inSlope: {x: -0, y: -0.0000028610236, z: 9.6000024e-14}
        outSlope: {x: -0, y: 0.0000021457656, z: -3.1200007e-13}
        tangentMode: 0
        weightedMode: 0
        inWeight: {x: 0.33333334, y: 0.33333334, z: 0.33333334}
        outWeight: {x: 0.33333334, y: 0.33333334, z: 0.33333334}
      - serializedVersion: 3
        time: 0.41666666
        value: {x: -4.6504517, y: 0.0000003874301, z: -2e-15}
        inSlope: {x: -0, y: 0.0000021457656, z: -3.1200007e-13}
        outSlope: {x: 0.000022888173, y: -0.0000014305081, z: -4.7999978e-14}
        tangentMode: 0
        weightedMode: 0
        inWeight: {x: 0.33333334, y: 0.33333334, z: 0.33333334}
        outWeight: {x: 0.33333334, y: 0.33333334, z: 0.33333334}
      - serializedVersion: 3
        time: 0.45833334
        value: {x: -4.6504507, y: 0.00000032782557, z: -4e-15}
        inSlope: {x: 0.000022888173, y: -0.0000014305081, z: -4.7999978e-14}
        outSlope: {x: -0.0000114440945, y: -0.0000021457677, z: -7.680002e-13}
        tangentMode: 0
        weightedMode: 0
        inWeight: {x: 0.33333334, y: 0.33333334, z: 0.33333334}
        outWeight: {x: 0.33333334, y: 0.33333334, z: 0.33333334}
      - serializedVersion: 3
        time: 0.5
        value: {x: -4.650451, y: 0.0000002384186, z: -3.6e-14}
        inSlope: {x: -0.0000114440945, y: -0.0000021457677, z: -7.680002e-13}
        outSlope: {x: -0.000022888173, y: 0.0000085830625, z: 1.1999995e-12}
        tangentMode: 0
        weightedMode: 0
        inWeight: {x: 0.33333334, y: 0.33333334, z: 0.33333334}
        outWeight: {x: 0.33333334, y: 0.33333334, z: 0.33333334}
      - serializedVersion: 3
        time: 0.5416667
        value: {x: -4.650452, y: 0.0000005960464, z: 1.4e-14}
        inSlope: {x: -0.000022888173, y: 0.0000085830625, z: 1.1999995e-12}
        outSlope: {x: 0.000011444103, y: -0.000002861025, z: -5.7600056e-13}
        tangentMode: 0
        weightedMode: 0
        inWeight: {x: 0.33333334, y: 0.33333334, z: 0.33333334}
        outWeight: {x: 0.33333334, y: 0.33333334, z: 0.33333334}
      - serializedVersion: 3
        time: 0.5833333
        value: {x: -4.6504517, y: 0.00000047683713, z: -1e-14}
        inSlope: {x: 0.000011444103, y: -0.000002861025, z: -5.7600056e-13}
        outSlope: {x: -0, y: -0, z: -0}
        tangentMode: 0
        weightedMode: 0
        inWeight: {x: 0.33333334, y: 0.33333334, z: 0.33333334}
        outWeight: {x: 0.33333334, y: 0.33333334, z: 0.33333334}
      - serializedVersion: 3
        time: 0.9583333
        value: {x: -4.6504517, y: 0.00000047683713, z: -1e-14}
        inSlope: {x: -0, y: -0, z: -0}
        outSlope: {x: -0, y: -0, z: -0}
        tangentMode: 0
        weightedMode: 0
        inWeight: {x: 0.33333334, y: 0.33333334, z: 0.33333334}
        outWeight: {x: 0.33333334, y: 0.33333334, z: 0.33333334}
      m_PreInfinity: 2
      m_PostInfinity: 2
      m_RotationOrder: 4
    path: Armature/Bone/Bone_001/Bone_002
  - curve:
      serializedVersion: 2
      m_Curve:
      - serializedVersion: 3
        time: 0
        value: {x: -3.8591774, y: 0.00000023841864, z: 2.8e-14}
        inSlope: {x: 0.000005722046, y: -1.364242e-12, z: -4.8000015e-14}
        outSlope: {x: 0.000005722046, y: -1.364242e-12, z: -4.8000015e-14}
        tangentMode: 0
        weightedMode: 0
        inWeight: {x: 0.33333334, y: 0.33333334, z: 0.33333334}
        outWeight: {x: 0.33333334, y: 0.33333334, z: 0.33333334}
      - serializedVersion: 3
        time: 0.041666668
        value: {x: -3.859177, y: 0.00000023841858, z: 2.6e-14}
        inSlope: {x: 0.000005722046, y: -1.364242e-12, z: -4.8000015e-14}
        outSlope: {x: -0.000017166138, y: 0.0000057220473, z: -7.1999996e-13}
        tangentMode: 0
        weightedMode: 0
        inWeight: {x: 0.33333334, y: 0.33333334, z: 0.33333334}
        outWeight: {x: 0.33333334, y: 0.33333334, z: 0.33333334}
      - serializedVersion: 3
        time: 0.083333336
        value: {x: -3.8591778, y: 0.0000004768372, z: -4e-15}
        inSlope: {x: -0.000017166138, y: 0.0000057220473, z: -7.1999996e-13}
        outSlope: {x: 0.000028610231, y: -2.0463633e-12, z: 6.2400004e-13}
        tangentMode: 0
        weightedMode: 0
        inWeight: {x: 0.33333334, y: 0.33333334, z: 0.33333334}
        outWeight: {x: 0.33333334, y: 0.33333334, z: 0.33333334}
      - serializedVersion: 3
        time: 0.125
        value: {x: -3.8591766, y: 0.00000047683713, z: 2.2e-14}
        inSlope: {x: 0.000028610231, y: -2.0463633e-12, z: 6.2400004e-13}
        outSlope: {x: -0.000045776364, y: -0.0000057220445, z: -7.2000016e-14}
        tangentMode: 0
        weightedMode: 0
        inWeight: {x: 0.33333334, y: 0.33333334, z: 0.33333334}
        outWeight: {x: 0.33333334, y: 0.33333334, z: 0.33333334}
      - serializedVersion: 3
        time: 0.16666667
        value: {x: -3.8591785, y: 0.00000023841858, z: 1.9e-14}
        inSlope: {x: -0.000045776364, y: -0.0000057220445, z: -7.2000016e-14}
        outSlope: {x: 0.000028610237, y: 0.000005722046, z: -6.480001e-13}
        tangentMode: 0
        weightedMode: 0
        inWeight: {x: 0.33333334, y: 0.33333334, z: 0.33333334}
        outWeight: {x: 0.33333334, y: 0.33333334, z: 0.33333334}
      - serializedVersion: 3
        time: 0.20833333
        value: {x: -3.8591774, y: 0.0000004768371, z: -8e-15}
        inSlope: {x: 0.000028610237, y: 0.000005722046, z: -6.480001e-13}
        outSlope: {x: -0.00003433227, y: 1.3642419e-12, z: 1.3679998e-12}
        tangentMode: 0
        weightedMode: 0
        inWeight: {x: 0.33333334, y: 0.33333334, z: 0.33333334}
        outWeight: {x: 0.33333334, y: 0.33333334, z: 0.33333334}
      - serializedVersion: 3
        time: 0.25
        value: {x: -3.8591788, y: 0.00000047683716, z: 4.9e-14}
        inSlope: {x: -0.00003433227, y: 1.3642419e-12, z: 1.3679998e-12}
        outSlope: {x: 0.000057220474, y: -0.000005722043, z: -5.0400005e-13}
        tangentMode: 0
        weightedMode: 0
        inWeight: {x: 0.33333334, y: 0.33333334, z: 0.33333334}
        outWeight: {x: 0.33333334, y: 0.33333334, z: 0.33333334}
      - serializedVersion: 3
        time: 0.29166666
        value: {x: -3.8591764, y: 0.00000023841875, z: 2.8e-14}
        inSlope: {x: 0.000057220474, y: -0.000005722043, z: -5.0400005e-13}
        outSlope: {x: -0.000040054303, y: -4.0927244e-12, z: -3.3599984e-13}
        tangentMode: 0
        weightedMode: 0
        inWeight: {x: 0.33333334, y: 0.33333334, z: 0.33333334}
        outWeight: {x: 0.33333334, y: 0.33333334, z: 0.33333334}
      - serializedVersion: 3
        time: 0.33333334
        value: {x: -3.859178, y: 0.00000023841858, z: 1.4e-14}
        inSlope: {x: -0.000040054303, y: -4.0927244e-12, z: -3.3599984e-13}
        outSlope: {x: -0.000017166141, y: 0.0000028610236, z: -3.3600008e-13}
        tangentMode: 0
        weightedMode: 0
        inWeight: {x: 0.33333334, y: 0.33333334, z: 0.33333334}
        outWeight: {x: 0.33333334, y: 0.33333334, z: 0.33333334}
      - serializedVersion: 3
        time: 0.375
        value: {x: -3.8591788, y: 0.00000035762787, z: 0}
        inSlope: {x: -0.000017166141, y: 0.0000028610236, z: -3.3600008e-13}
        outSlope: {x: 0.000017166141, y: 0.0000014305077, z: 9.6000024e-14}
        tangentMode: 0
        weightedMode: 0
        inWeight: {x: 0.33333334, y: 0.33333334, z: 0.33333334}
        outWeight: {x: 0.33333334, y: 0.33333334, z: 0.33333334}
      - serializedVersion: 3
        time: 0.41666666
        value: {x: -3.859178, y: 0.00000041723234, z: 4e-15}
        inSlope: {x: 0.000017166141, y: 0.0000014305077, z: 9.6000024e-14}
        outSlope: {x: 0.000028610217, y: -0.0000028610161, z: -1.1999994e-13}
        tangentMode: 0
        weightedMode: 0
        inWeight: {x: 0.33333334, y: 0.33333334, z: 0.33333334}
        outWeight: {x: 0.33333334, y: 0.33333334, z: 0.33333334}
      - serializedVersion: 3
        time: 0.45833334
        value: {x: -3.8591769, y: 0.00000029802328, z: -1e-15}
        inSlope: {x: 0.000028610217, y: -0.0000028610161, z: -1.1999994e-13}
        outSlope: {x: -0, y: -0.0000014305125, z: -3.1200007e-13}
        tangentMode: 0
        weightedMode: 0
        inWeight: {x: 0.33333334, y: 0.33333334, z: 0.33333334}
        outWeight: {x: 0.33333334, y: 0.33333334, z: 0.33333334}
      - serializedVersion: 3
        time: 0.5
        value: {x: -3.8591769, y: 0.0000002384186, z: -1.4e-14}
        inSlope: {x: -0, y: -0.0000014305125, z: -3.1200007e-13}
        outSlope: {x: -0.00001716613, y: -0.0000057220454, z: -1.0319995e-12}
        tangentMode: 0
        weightedMode: 0
        inWeight: {x: 0.33333334, y: 0.33333334, z: 0.33333334}
        outWeight: {x: 0.33333334, y: 0.33333334, z: 0.33333334}
      - serializedVersion: 3
        time: 0.5416667
        value: {x: -3.8591776, y: -4.3e-14, z: -5.7e-14}
        inSlope: {x: -0.00001716613, y: -0.0000057220454, z: -1.0319995e-12}
        outSlope: {x: -0.000011444103, y: 0.000005722051, z: 8.160007e-13}
        tangentMode: 0
        weightedMode: 0
        inWeight: {x: 0.33333334, y: 0.33333334, z: 0.33333334}
        outWeight: {x: 0.33333334, y: 0.33333334, z: 0.33333334}
      - serializedVersion: 3
        time: 0.5833333
        value: {x: -3.859178, y: 0.00000023841852, z: -2.3e-14}
        inSlope: {x: -0.000011444103, y: 0.000005722051, z: 8.160007e-13}
        outSlope: {x: -0, y: -0, z: -0}
        tangentMode: 0
        weightedMode: 0
        inWeight: {x: 0.33333334, y: 0.33333334, z: 0.33333334}
        outWeight: {x: 0.33333334, y: 0.33333334, z: 0.33333334}
      - serializedVersion: 3
        time: 0.9583333
        value: {x: -3.859178, y: 0.00000023841852, z: -2.3e-14}
        inSlope: {x: -0, y: -0, z: -0}
        outSlope: {x: -0, y: -0, z: -0}
        tangentMode: 0
        weightedMode: 0
        inWeight: {x: 0.33333334, y: 0.33333334, z: 0.33333334}
        outWeight: {x: 0.33333334, y: 0.33333334, z: 0.33333334}
      m_PreInfinity: 2
      m_PostInfinity: 2
      m_RotationOrder: 4
    path: Armature/Bone/Bone_001/Bone_002/Bone_003
  - curve:
      serializedVersion: 2
      m_Curve:
      - serializedVersion: 3
        time: 0
        value: {x: -3.8168569, y: 0.00000023841864, z: 0}
        inSlope: {x: -0.000062942505, y: -0.0000057220473, z: 8.4e-13}
        outSlope: {x: -0.000062942505, y: -0.0000057220473, z: 8.4e-13}
        tangentMode: 0
        weightedMode: 0
        inWeight: {x: 0.33333334, y: 0.33333334, z: 0.33333334}
        outWeight: {x: 0.33333334, y: 0.33333334, z: 0.33333334}
      - serializedVersion: 3
        time: 0.041666668
        value: {x: -3.8168595, y: 0, z: 3.5e-14}
        inSlope: {x: -0.000062942505, y: -0.0000057220473, z: 8.4e-13}
        outSlope: {x: -0, y: 0.0000114440945, z: -7.4399997e-13}
        tangentMode: 0
        weightedMode: 0
        inWeight: {x: 0.33333334, y: 0.33333334, z: 0.33333334}
        outWeight: {x: 0.33333334, y: 0.33333334, z: 0.33333334}
      - serializedVersion: 3
        time: 0.083333336
        value: {x: -3.8168595, y: 0.0000004768373, z: 4e-15}
        inSlope: {x: -0, y: 0.0000114440945, z: -7.4399997e-13}
        outSlope: {x: 0.00001716614, y: -0.0000057220504, z: 7.6800003e-13}
        tangentMode: 0
        weightedMode: 0
        inWeight: {x: 0.33333334, y: 0.33333334, z: 0.33333334}
        outWeight: {x: 0.33333334, y: 0.33333334, z: 0.33333334}
      - serializedVersion: 3
        time: 0.125
        value: {x: -3.8168588, y: 0.00000023841852, z: 3.6e-14}
        inSlope: {x: 0.00001716614, y: -0.0000057220504, z: 7.6800003e-13}
        outSlope: {x: 0.0000057220454, y: 1.3642419e-12, z: -0}
        tangentMode: 0
        weightedMode: 0
        inWeight: {x: 0.33333334, y: 0.33333334, z: 0.33333334}
        outWeight: {x: 0.33333334, y: 0.33333334, z: 0.33333334}
      - serializedVersion: 3
        time: 0.16666667
        value: {x: -3.8168585, y: 0.00000023841858, z: 3.6e-14}
        inSlope: {x: 0.0000057220454, y: 1.3642419e-12, z: -0}
        outSlope: {x: -0.000017166141, y: 0.0000057220445, z: 7.199996e-14}
        tangentMode: 0
        weightedMode: 0
        inWeight: {x: 0.33333334, y: 0.33333334, z: 0.33333334}
        outWeight: {x: 0.33333334, y: 0.33333334, z: 0.33333334}
      - serializedVersion: 3
        time: 0.20833333
        value: {x: -3.8168592, y: 0.00000047683704, z: 3.9e-14}
        inSlope: {x: -0.000017166141, y: 0.0000057220445, z: 7.199996e-14}
        outSlope: {x: 0.0000057220454, y: 2.7284839e-12, z: 1.2000002e-13}
        tangentMode: 0
        weightedMode: 0
        inWeight: {x: 0.33333334, y: 0.33333334, z: 0.33333334}
        outWeight: {x: 0.33333334, y: 0.33333334, z: 0.33333334}
      - serializedVersion: 3
        time: 0.25
        value: {x: -3.816859, y: 0.00000047683716, z: 4.4e-14}
        inSlope: {x: 0.0000057220454, y: 2.7284839e-12, z: 1.2000002e-13}
        outSlope: {x: 0.000022888189, y: -0.000005722042, z: -1.2240003e-12}
        tangentMode: 0
        weightedMode: 0
        inWeight: {x: 0.33333334, y: 0.33333334, z: 0.33333334}
        outWeight: {x: 0.33333334, y: 0.33333334, z: 0.33333334}
      - serializedVersion: 3
        time: 0.29166666
        value: {x: -3.816858, y: 0.0000002384188, z: -7e-15}
        inSlope: {x: 0.000022888189, y: -0.000005722042, z: -1.2240003e-12}
        outSlope: {x: -0.000005722043, y: -5.4569656e-12, z: -0}
        tangentMode: 0
        weightedMode: 0
        inWeight: {x: 0.33333334, y: 0.33333334, z: 0.33333334}
        outWeight: {x: 0.33333334, y: 0.33333334, z: 0.33333334}
      - serializedVersion: 3
        time: 0.33333334
        value: {x: -3.8168583, y: 0.00000023841858, z: -7e-15}
        inSlope: {x: -0.000005722043, y: -5.4569656e-12, z: -0}
        outSlope: {x: -0.000034332283, y: 0.0000028610236, z: 6.7200016e-13}
        tangentMode: 0
        weightedMode: 0
        inWeight: {x: 0.33333334, y: 0.33333334, z: 0.33333334}
        outWeight: {x: 0.33333334, y: 0.33333334, z: 0.33333334}
      - serializedVersion: 3
        time: 0.375
        value: {x: -3.8168597, y: 0.00000035762787, z: 2.1e-14}
        inSlope: {x: -0.000034332283, y: 0.0000028610236, z: 6.7200016e-13}
        outSlope: {x: 0.000022888189, y: -0.0000028610318, z: -3.3600005e-13}
        tangentMode: 0
        weightedMode: 0
        inWeight: {x: 0.33333334, y: 0.33333334, z: 0.33333334}
        outWeight: {x: 0.33333334, y: 0.33333334, z: 0.33333334}
      - serializedVersion: 3
        time: 0.41666666
        value: {x: -3.8168588, y: 0.00000023841824, z: 7e-15}
        inSlope: {x: 0.000022888189, y: -0.0000028610318, z: -3.3600005e-13}
        outSlope: {x: 0.000011444086, y: 1.0913931e-11, z: -4.799998e-13}
        tangentMode: 0
        weightedMode: 0
        inWeight: {x: 0.33333334, y: 0.33333334, z: 0.33333334}
        outWeight: {x: 0.33333334, y: 0.33333334, z: 0.33333334}
      - serializedVersion: 3
        time: 0.45833334
        value: {x: -3.8168583, y: 0.0000002384187, z: -1.3e-14}
        inSlope: {x: 0.000011444086, y: 1.0913931e-11, z: -4.799998e-13}
        outSlope: {x: -0.0000114440945, y: 0.000005722046, z: -7.200002e-13}
        tangentMode: 0
        weightedMode: 0
        inWeight: {x: 0.33333334, y: 0.33333334, z: 0.33333334}
        outWeight: {x: 0.33333334, y: 0.33333334, z: 0.33333334}
      - serializedVersion: 3
        time: 0.5
        value: {x: -3.8168588, y: 0.0000004768372, z: -4.3e-14}
        inSlope: {x: -0.0000114440945, y: 0.000005722046, z: -7.200002e-13}
        outSlope: {x: 0.000011444086, y: -2.7284828e-12, z: 2.3999988e-12}
        tangentMode: 0
        weightedMode: 0
        inWeight: {x: 0.33333334, y: 0.33333334, z: 0.33333334}
        outWeight: {x: 0.33333334, y: 0.33333334, z: 0.33333334}
      - serializedVersion: 3
        time: 0.5416667
        value: {x: -3.8168583, y: 0.0000004768371, z: 5.7e-14}
        inSlope: {x: 0.000011444086, y: -2.7284828e-12, z: 2.3999988e-12}
        outSlope: {x: -0.000057220514, y: -0.0000057220527, z: -2.2080022e-12}
        tangentMode: 0
        weightedMode: 0
        inWeight: {x: 0.33333334, y: 0.33333334, z: 0.33333334}
        outWeight: {x: 0.33333334, y: 0.33333334, z: 0.33333334}
      - serializedVersion: 3
        time: 0.5833333
        value: {x: -3.8168607, y: 0.00000023841847, z: -3.5e-14}
        inSlope: {x: -0.000057220514, y: -0.0000057220527, z: -2.2080022e-12}
        outSlope: {x: 0.00003433226, y: -0.0000071525515, z: 1.0079996e-12}
        tangentMode: 0
        weightedMode: 0
        inWeight: {x: 0.33333334, y: 0.33333334, z: 0.33333334}
        outWeight: {x: 0.33333334, y: 0.33333334, z: 0.33333334}
      - serializedVersion: 3
        time: 0.625
        value: {x: -3.8168592, y: -0.000000059604645, z: 7e-15}
        inSlope: {x: 0.00003433226, y: -0.0000071525515, z: 1.0079996e-12}
        outSlope: {x: -0.000011444086, y: 0.000007152554, z: -2.039999e-12}
        tangentMode: 0
        weightedMode: 0
        inWeight: {x: 0.33333334, y: 0.33333334, z: 0.33333334}
        outWeight: {x: 0.33333334, y: 0.33333334, z: 0.33333334}
      - serializedVersion: 3
        time: 0.6666667
        value: {x: -3.8168597, y: 0.00000023841858, z: -7.8e-14}
        inSlope: {x: -0.000011444086, y: 0.000007152554, z: -2.039999e-12}
        outSlope: {x: -0.000034332308, y: -0, z: 2.2320021e-12}
        tangentMode: 0
        weightedMode: 0
        inWeight: {x: 0.33333334, y: 0.33333334, z: 0.33333334}
        outWeight: {x: 0.33333334, y: 0.33333334, z: 0.33333334}
      - serializedVersion: 3
        time: 0.7083333
        value: {x: -3.8168612, y: 0.00000023841858, z: 1.5e-14}
        inSlope: {x: -0.000034332308, y: -0, z: 2.2320021e-12}
        outSlope: {x: 0.000011444086, y: -0.000005722043, z: 2.3999996e-14}
        tangentMode: 0
        weightedMode: 0
        inWeight: {x: 0.33333334, y: 0.33333334, z: 0.33333334}
        outWeight: {x: 0.33333334, y: 0.33333334, z: 0.33333334}
      - serializedVersion: 3
        time: 0.75
        value: {x: -3.8168607, y: 0, z: 1.6e-14}
        inSlope: {x: 0.000011444086, y: -0.000005722043, z: 2.3999996e-14}
        outSlope: {x: 0.00003433226, y: 0.0000028610216, z: -9.119995e-13}
        tangentMode: 0
        weightedMode: 0
        inWeight: {x: 0.33333334, y: 0.33333334, z: 0.33333334}
        outWeight: {x: 0.33333334, y: 0.33333334, z: 0.33333334}
      - serializedVersion: 3
        time: 0.875
        value: {x: -3.816859, y: 0.00000035762787, z: -7e-15}
        inSlope: {x: 0.00001716613, y: 0.0000028610216, z: 1.7039991e-12}
        outSlope: {x: -0.000040054303, y: -0.000008583065, z: -1.2719994e-12}
        tangentMode: 0
        weightedMode: 0
        inWeight: {x: 0.33333334, y: 0.33333334, z: 0.33333334}
        outWeight: {x: 0.33333334, y: 0.33333334, z: 0.33333334}
      - serializedVersion: 3
        time: 0.9166667
        value: {x: -3.8168607, y: -3e-15, z: -6e-14}
        inSlope: {x: -0.000040054303, y: -0.000008583065, z: -1.2719994e-12}
        outSlope: {x: -0.000011444103, y: 0.0000057220514, z: 1.8000017e-12}
        tangentMode: 0
        weightedMode: 0
        inWeight: {x: 0.33333334, y: 0.33333334, z: 0.33333334}
        outWeight: {x: 0.33333334, y: 0.33333334, z: 0.33333334}
      - serializedVersion: 3
        time: 0.9583333
        value: {x: -3.8168612, y: 0.00000023841858, z: 1.5e-14}
        inSlope: {x: -0.000011444103, y: 0.0000057220514, z: 1.8000017e-12}
        outSlope: {x: -0.000011444103, y: 0.0000057220514, z: 1.8000017e-12}
        tangentMode: 0
        weightedMode: 0
        inWeight: {x: 0.33333334, y: 0.33333334, z: 0.33333334}
        outWeight: {x: 0.33333334, y: 0.33333334, z: 0.33333334}
      m_PreInfinity: 2
      m_PostInfinity: 2
      m_RotationOrder: 4
    path: Armature/Bone/Bone_001/Bone_002/Bone_003/Bone_004
  - curve:
      serializedVersion: 2
      m_Curve:
      - serializedVersion: 3
        time: 0
        value: {x: -3.7705731, y: 0.00000023841858, z: 2.2e-14}
        inSlope: {x: -0.000011444092, y: -0.000011444092, z: -1.872e-12}
        outSlope: {x: -0.000011444092, y: -0.000011444092, z: -1.872e-12}
        tangentMode: 0
        weightedMode: 0
        inWeight: {x: 0.33333334, y: 0.33333334, z: 0.33333334}
        outWeight: {x: 0.33333334, y: 0.33333334, z: 0.33333334}
      - serializedVersion: 3
        time: 0.041666668
        value: {x: -3.7705736, y: -0.00000023841858, z: -5.6e-14}
        inSlope: {x: -0.000011444092, y: -0.000011444092, z: -1.872e-12}
        outSlope: {x: 0.000005722046, y: 0.000005722046, z: 4.8e-13}
        tangentMode: 0
        weightedMode: 0
        inWeight: {x: 0.33333334, y: 0.33333334, z: 0.33333334}
        outWeight: {x: 0.33333334, y: 0.33333334, z: 0.33333334}
      - serializedVersion: 3
        time: 0.083333336
        value: {x: -3.7705734, y: 0, z: -3.6e-14}
        inSlope: {x: 0.000005722046, y: 0.000005722046, z: 4.8e-13}
        outSlope: {x: -0.00001716614, y: 0.00000858307, z: 2.8800007e-13}
        tangentMode: 0
        weightedMode: 0
        inWeight: {x: 0.33333334, y: 0.33333334, z: 0.33333334}
        outWeight: {x: 0.33333334, y: 0.33333334, z: 0.33333334}
      - serializedVersion: 3
        time: 0.125
        value: {x: -3.770574, y: 0.00000035762787, z: -2.4e-14}
        inSlope: {x: -0.00001716614, y: 0.00000858307, z: 2.8800007e-13}
        outSlope: {x: 0.0000057220454, y: 0.0000028610227, z: 2.1599996e-13}
        tangentMode: 0
        weightedMode: 0
        inWeight: {x: 0.33333334, y: 0.33333334, z: 0.33333334}
        outWeight: {x: 0.33333334, y: 0.33333334, z: 0.33333334}
      - serializedVersion: 3
        time: 0.16666667
        value: {x: -3.7705739, y: 0.00000047683716, z: -1.5e-14}
        inSlope: {x: 0.0000057220454, y: 0.0000028610227, z: 2.1599996e-13}
        outSlope: {x: 0.000022888189, y: -0.0000114440945, z: 6.0000014e-13}
        tangentMode: 0
        weightedMode: 0
        inWeight: {x: 0.33333334, y: 0.33333334, z: 0.33333334}
        outWeight: {x: 0.33333334, y: 0.33333334, z: 0.33333334}
      - serializedVersion: 3
        time: 0.20833333
        value: {x: -3.770573, y: -1e-15, z: 1e-14}
        inSlope: {x: 0.000022888189, y: -0.0000114440945, z: 6.0000014e-13}
        outSlope: {x: -0, y: 0.000022888182, z: -1.0079999e-12}
        tangentMode: 0
        weightedMode: 0
        inWeight: {x: 0.33333334, y: 0.33333334, z: 0.33333334}
        outWeight: {x: 0.33333334, y: 0.33333334, z: 0.33333334}
      - serializedVersion: 3
        time: 0.25
        value: {x: -3.770573, y: 0.0000009536743, z: -3.2e-14}
        inSlope: {x: -0, y: 0.000022888182, z: -1.0079999e-12}
        outSlope: {x: -0.000028610237, y: -0.000014305118, z: 2.4240007e-12}
        tangentMode: 0
        weightedMode: 0
        inWeight: {x: 0.33333334, y: 0.33333334, z: 0.33333334}
        outWeight: {x: 0.33333334, y: 0.33333334, z: 0.33333334}
      - serializedVersion: 3
        time: 0.29166666
        value: {x: -3.770574, y: 0.00000035762787, z: 6.9e-14}
        inSlope: {x: -0.000028610237, y: -0.000014305118, z: 2.4240007e-12}
        outSlope: {x: 0.000011444086, y: 0.0000028610216, z: -2.327999e-12}
        tangentMode: 0
        weightedMode: 0
        inWeight: {x: 0.33333334, y: 0.33333334, z: 0.33333334}
        outWeight: {x: 0.33333334, y: 0.33333334, z: 0.33333334}
      - serializedVersion: 3
        time: 0.33333334
        value: {x: -3.7705736, y: 0.00000047683716, z: -2.8e-14}
        inSlope: {x: 0.000011444086, y: 0.0000028610216, z: -2.327999e-12}
        outSlope: {x: -0.0000057220473, y: -0.0000028610236, z: 1.5360004e-12}
        tangentMode: 0
        weightedMode: 0
        inWeight: {x: 0.33333334, y: 0.33333334, z: 0.33333334}
        outWeight: {x: 0.33333334, y: 0.33333334, z: 0.33333334}
      - serializedVersion: 3
        time: 0.375
        value: {x: -3.7705739, y: 0.00000035762787, z: 3.6e-14}
        inSlope: {x: -0.0000057220473, y: -0.0000028610236, z: 1.5360004e-12}
        outSlope: {x: 0.000034332283, y: -0.000008583071, z: -1.5360004e-12}
        tangentMode: 0
        weightedMode: 0
        inWeight: {x: 0.33333334, y: 0.33333334, z: 0.33333334}
        outWeight: {x: 0.33333334, y: 0.33333334, z: 0.33333334}
      - serializedVersion: 3
        time: 0.41666666
        value: {x: -3.7705724, y: 8e-15, z: -2.8e-14}
        inSlope: {x: 0.000034332283, y: -0.000008583071, z: -1.5360004e-12}
        outSlope: {x: 0.000022888173, y: 0.000008583065, z: 6.239997e-13}
        tangentMode: 0
        weightedMode: 0
        inWeight: {x: 0.33333334, y: 0.33333334, z: 0.33333334}
        outWeight: {x: 0.33333334, y: 0.33333334, z: 0.33333334}
      - serializedVersion: 3
        time: 0.45833334
        value: {x: -3.7705715, y: 0.00000035762787, z: -2e-15}
        inSlope: {x: 0.000022888173, y: 0.000008583065, z: 6.239997e-13}
        outSlope: {x: -0.00007438661, y: 0.000002861023, z: 3.840001e-13}
        tangentMode: 0
        weightedMode: 0
        inWeight: {x: 0.33333334, y: 0.33333334, z: 0.33333334}
        outWeight: {x: 0.33333334, y: 0.33333334, z: 0.33333334}
      - serializedVersion: 3
        time: 0.5
        value: {x: -3.7705746, y: 0.00000047683713, z: 1.4e-14}
        inSlope: {x: -0.00007438661, y: 0.000002861023, z: 3.840001e-13}
        outSlope: {x: 0.000022888173, y: -0.000008583066, z: -4.079998e-12}
        tangentMode: 0
        weightedMode: 0
        inWeight: {x: 0.33333334, y: 0.33333334, z: 0.33333334}
        outWeight: {x: 0.33333334, y: 0.33333334, z: 0.33333334}
      - serializedVersion: 3
        time: 0.5416667
        value: {x: -3.7705736, y: 0.00000011920922, z: -1.56e-13}
        inSlope: {x: 0.000022888173, y: -0.000008583066, z: -4.079998e-12}
        outSlope: {x: 0.0000057220514, y: 0.0000071525656, z: 4.9200045e-12}
        tangentMode: 0
        weightedMode: 0
        inWeight: {x: 0.33333334, y: 0.33333334, z: 0.33333334}
        outWeight: {x: 0.33333334, y: 0.33333334, z: 0.33333334}
      - serializedVersion: 3
        time: 0.5833333
        value: {x: -3.7705734, y: 0.0000004172325, z: 4.9e-14}
        inSlope: {x: 0.0000057220514, y: 0.0000071525656, z: 4.9200045e-12}
        outSlope: {x: -0.000005722043, y: -0.000007152554, z: -1.6799991e-12}
        tangentMode: 0
        weightedMode: 0
        inWeight: {x: 0.33333334, y: 0.33333334, z: 0.33333334}
        outWeight: {x: 0.33333334, y: 0.33333334, z: 0.33333334}
      - serializedVersion: 3
        time: 0.625
        value: {x: -3.7705736, y: 0.00000011920929, z: -2.1e-14}
        inSlope: {x: -0.000005722043, y: -0.000007152554, z: -1.6799991e-12}
        outSlope: {x: -0.000022888173, y: 0.0000028610216, z: 9.359995e-13}
        tangentMode: 0
        weightedMode: 0
        inWeight: {x: 0.33333334, y: 0.33333334, z: 0.33333334}
        outWeight: {x: 0.33333334, y: 0.33333334, z: 0.33333334}
      - serializedVersion: 3
        time: 0.6666667
        value: {x: -3.7705746, y: 0.00000023841858, z: 1.8e-14}
        inSlope: {x: -0.000022888173, y: 0.0000028610216, z: 9.359995e-13}
        outSlope: {x: 0.00004577641, y: 0.0000014305128, z: -6.2400063e-13}
        tangentMode: 0
        weightedMode: 0
        inWeight: {x: 0.33333334, y: 0.33333334, z: 0.33333334}
        outWeight: {x: 0.33333334, y: 0.33333334, z: 0.33333334}
      - serializedVersion: 3
        time: 0.7083333
        value: {x: -3.7705727, y: 0.00000029802322, z: -8e-15}
        inSlope: {x: 0.00004577641, y: 0.0000014305128, z: -6.2400063e-13}
        outSlope: {x: -0.00001716613, y: 0.000014305108, z: 1.1039994e-12}
        tangentMode: 0
        weightedMode: 0
        inWeight: {x: 0.33333334, y: 0.33333334, z: 0.33333334}
        outWeight: {x: 0.33333334, y: 0.33333334, z: 0.33333334}
      - serializedVersion: 3
        time: 0.75
        value: {x: -3.7705734, y: 0.0000008940697, z: 3.8e-14}
        inSlope: {x: -0.00001716613, y: 0.000014305108, z: 1.1039994e-12}
        outSlope: {x: -0.000005722043, y: -0.000021457661, z: -4.799997e-13}
        tangentMode: 0
        weightedMode: 0
        inWeight: {x: 0.33333334, y: 0.33333334, z: 0.33333334}
        outWeight: {x: 0.33333334, y: 0.33333334, z: 0.33333334}
      - serializedVersion: 3
        time: 0.7916667
        value: {x: -3.7705736, y: 2e-15, z: 1.8e-14}
        inSlope: {x: -0.000005722043, y: -0.000021457661, z: -4.799997e-13}
        outSlope: {x: -0.000022888205, y: 0.0000057220514, z: -0}
        tangentMode: 0
        weightedMode: 0
        inWeight: {x: 0.33333334, y: 0.33333334, z: 0.33333334}
        outWeight: {x: 0.33333334, y: 0.33333334, z: 0.33333334}
      - serializedVersion: 3
        time: 0.8333333
        value: {x: -3.7705746, y: 0.00000023841858, z: 1.8e-14}
        inSlope: {x: -0.000022888205, y: 0.0000057220514, z: -0}
        outSlope: {x: 0.000022888173, y: -0.000005722043, z: -1.6799993e-13}
        tangentMode: 0
        weightedMode: 0
        inWeight: {x: 0.33333334, y: 0.33333334, z: 0.33333334}
        outWeight: {x: 0.33333334, y: 0.33333334, z: 0.33333334}
      - serializedVersion: 3
        time: 0.875
        value: {x: -3.7705736, y: -6e-15, z: 1.1e-14}
        inSlope: {x: 0.000022888173, y: -0.000005722043, z: -1.6799993e-13}
        outSlope: {x: 0.000005722043, y: 0.000021457661, z: 1.6079991e-12}
        tangentMode: 0
        weightedMode: 0
        inWeight: {x: 0.33333334, y: 0.33333334, z: 0.33333334}
        outWeight: {x: 0.33333334, y: 0.33333334, z: 0.33333334}
      - serializedVersion: 3
        time: 0.9166667
        value: {x: -3.7705734, y: 0.0000008940697, z: 7.8e-14}
        inSlope: {x: 0.000005722043, y: 0.000021457661, z: 1.6079991e-12}
        outSlope: {x: 0.000017166154, y: -0.000014305128, z: -2.064002e-12}
        tangentMode: 0
        weightedMode: 0
        inWeight: {x: 0.33333334, y: 0.33333334, z: 0.33333334}
        outWeight: {x: 0.33333334, y: 0.33333334, z: 0.33333334}
      - serializedVersion: 3
        time: 0.9583333
        value: {x: -3.7705727, y: 0.00000029802322, z: -8e-15}
        inSlope: {x: 0.000017166154, y: -0.000014305128, z: -2.064002e-12}
        outSlope: {x: 0.000017166154, y: -0.000014305128, z: -2.064002e-12}
        tangentMode: 0
        weightedMode: 0
        inWeight: {x: 0.33333334, y: 0.33333334, z: 0.33333334}
        outWeight: {x: 0.33333334, y: 0.33333334, z: 0.33333334}
      m_PreInfinity: 2
      m_PostInfinity: 2
      m_RotationOrder: 4
    path: Armature/Bone/Bone_001/Bone_002/Bone_003/Bone_004/Bone_005
  m_ScaleCurves:
  - curve:
      serializedVersion: 2
      m_Curve:
      - serializedVersion: 3
        time: 0
        value: {x: 1, y: 1, z: 1}
        inSlope: {x: 0, y: 0, z: 0}
        outSlope: {x: 0, y: 0, z: 0}
        tangentMode: 0
        weightedMode: 0
        inWeight: {x: 0.33333334, y: 0.33333334, z: 0.33333334}
        outWeight: {x: 0.33333334, y: 0.33333334, z: 0.33333334}
      - serializedVersion: 3
        time: 0.9583334
        value: {x: 1, y: 1, z: 1}
        inSlope: {x: 0, y: 0, z: 0}
        outSlope: {x: 0, y: 0, z: 0}
        tangentMode: 0
        weightedMode: 0
        inWeight: {x: 0.33333334, y: 0.33333334, z: 0.33333334}
        outWeight: {x: 0.33333334, y: 0.33333334, z: 0.33333334}
      m_PreInfinity: 2
      m_PostInfinity: 2
      m_RotationOrder: 4
    path: Armature
  - curve:
      serializedVersion: 2
      m_Curve:
      - serializedVersion: 3
        time: 0
        value: {x: 1, y: 1, z: 1}
        inSlope: {x: 0, y: 0, z: 0}
        outSlope: {x: 0, y: 0, z: 0}
        tangentMode: 0
        weightedMode: 0
        inWeight: {x: 0.33333334, y: 0.33333334, z: 0.33333334}
        outWeight: {x: 0.33333334, y: 0.33333334, z: 0.33333334}
      - serializedVersion: 3
        time: 0.9583334
        value: {x: 1, y: 1, z: 1}
        inSlope: {x: 0, y: 0, z: 0}
        outSlope: {x: 0, y: 0, z: 0}
        tangentMode: 0
        weightedMode: 0
        inWeight: {x: 0.33333334, y: 0.33333334, z: 0.33333334}
        outWeight: {x: 0.33333334, y: 0.33333334, z: 0.33333334}
      m_PreInfinity: 2
      m_PostInfinity: 2
      m_RotationOrder: 4
    path: Armature/Bone
  - curve:
      serializedVersion: 2
      m_Curve:
      - serializedVersion: 3
        time: 0
        value: {x: 1, y: 1, z: 1}
        inSlope: {x: 0, y: 0, z: 0}
        outSlope: {x: 0, y: 0, z: 0}
        tangentMode: 0
        weightedMode: 0
        inWeight: {x: 0.33333334, y: 0.33333334, z: 0.33333334}
        outWeight: {x: 0.33333334, y: 0.33333334, z: 0.33333334}
      - serializedVersion: 3
        time: 0.9583334
        value: {x: 1, y: 1, z: 1}
        inSlope: {x: 0, y: 0, z: 0}
        outSlope: {x: 0, y: 0, z: 0}
        tangentMode: 0
        weightedMode: 0
        inWeight: {x: 0.33333334, y: 0.33333334, z: 0.33333334}
        outWeight: {x: 0.33333334, y: 0.33333334, z: 0.33333334}
      m_PreInfinity: 2
      m_PostInfinity: 2
      m_RotationOrder: 4
    path: Armature/Bone/Bone_001
  - curve:
      serializedVersion: 2
      m_Curve:
      - serializedVersion: 3
        time: 0
        value: {x: 1, y: 1, z: 1}
        inSlope: {x: 0, y: 0, z: 0}
        outSlope: {x: 0, y: 0, z: 0}
        tangentMode: 0
        weightedMode: 0
        inWeight: {x: 0.33333334, y: 0.33333334, z: 0.33333334}
        outWeight: {x: 0.33333334, y: 0.33333334, z: 0.33333334}
      - serializedVersion: 3
        time: 0.9583334
        value: {x: 1, y: 1, z: 1}
        inSlope: {x: 0, y: 0, z: 0}
        outSlope: {x: 0, y: 0, z: 0}
        tangentMode: 0
        weightedMode: 0
        inWeight: {x: 0.33333334, y: 0.33333334, z: 0.33333334}
        outWeight: {x: 0.33333334, y: 0.33333334, z: 0.33333334}
      m_PreInfinity: 2
      m_PostInfinity: 2
      m_RotationOrder: 4
    path: Armature/Bone/Bone_001/Bone_002
  - curve:
      serializedVersion: 2
      m_Curve:
      - serializedVersion: 3
        time: 0
        value: {x: 1, y: 1, z: 1}
        inSlope: {x: 0, y: 0, z: 0}
        outSlope: {x: 0, y: 0, z: 0}
        tangentMode: 0
        weightedMode: 0
        inWeight: {x: 0.33333334, y: 0.33333334, z: 0.33333334}
        outWeight: {x: 0.33333334, y: 0.33333334, z: 0.33333334}
      - serializedVersion: 3
        time: 0.9583334
        value: {x: 1, y: 1, z: 1}
        inSlope: {x: 0, y: 0, z: 0}
        outSlope: {x: 0, y: 0, z: 0}
        tangentMode: 0
        weightedMode: 0
        inWeight: {x: 0.33333334, y: 0.33333334, z: 0.33333334}
        outWeight: {x: 0.33333334, y: 0.33333334, z: 0.33333334}
      m_PreInfinity: 2
      m_PostInfinity: 2
      m_RotationOrder: 4
    path: Armature/Bone/Bone_001/Bone_002/Bone_003
  - curve:
      serializedVersion: 2
      m_Curve:
      - serializedVersion: 3
        time: 0
        value: {x: 0.99999994, y: 0.99999994, z: 1}
        inSlope: {x: 0, y: 0, z: 0}
        outSlope: {x: 0, y: 0, z: 0}
        tangentMode: 0
        weightedMode: 0
        inWeight: {x: 0.33333334, y: 0.33333334, z: 0.33333334}
        outWeight: {x: 0.33333334, y: 0.33333334, z: 0.33333334}
      - serializedVersion: 3
        time: 0.9583334
        value: {x: 0.99999994, y: 0.99999994, z: 1}
        inSlope: {x: 0, y: 0, z: 0}
        outSlope: {x: 0, y: 0, z: 0}
        tangentMode: 0
        weightedMode: 0
        inWeight: {x: 0.33333334, y: 0.33333334, z: 0.33333334}
        outWeight: {x: 0.33333334, y: 0.33333334, z: 0.33333334}
      m_PreInfinity: 2
      m_PostInfinity: 2
      m_RotationOrder: 4
    path: Armature/Bone/Bone_001/Bone_002/Bone_003/Bone_004
  - curve:
      serializedVersion: 2
      m_Curve:
      - serializedVersion: 3
        time: 0
        value: {x: 1, y: 1, z: 1}
        inSlope: {x: 0, y: 0, z: 0}
        outSlope: {x: 0, y: 0, z: 0}
        tangentMode: 0
        weightedMode: 0
        inWeight: {x: 0.33333334, y: 0.33333334, z: 0.33333334}
        outWeight: {x: 0.33333334, y: 0.33333334, z: 0.33333334}
      - serializedVersion: 3
        time: 0.9583334
        value: {x: 1, y: 1, z: 1}
        inSlope: {x: 0, y: 0, z: 0}
        outSlope: {x: 0, y: 0, z: 0}
        tangentMode: 0
        weightedMode: 0
        inWeight: {x: 0.33333334, y: 0.33333334, z: 0.33333334}
        outWeight: {x: 0.33333334, y: 0.33333334, z: 0.33333334}
      m_PreInfinity: 2
      m_PostInfinity: 2
      m_RotationOrder: 4
    path: Armature/Bone/Bone_001/Bone_002/Bone_003/Bone_004/Bone_005
  m_FloatCurves: []
  m_PPtrCurves: []
  m_SampleRate: 24
  m_WrapMode: 0
  m_Bounds:
    m_Center: {x: 0, y: 0, z: 0}
    m_Extent: {x: 0, y: 0, z: 0}
  m_ClipBindingConstant:
    genericBindings: []
    pptrCurveMapping: []
  m_AnimationClipSettings:
    serializedVersion: 2
    m_AdditiveReferencePoseClip: {fileID: 0}
    m_AdditiveReferencePoseTime: 0
    m_StartTime: 0
    m_StopTime: 0.9583334
    m_OrientationOffsetY: 0
    m_Level: 0
    m_CycleOffset: 0
    m_HasAdditiveReferencePose: 0
    m_LoopTime: 0
    m_LoopBlend: 0
    m_LoopBlendOrientation: 0
    m_LoopBlendPositionY: 0
    m_LoopBlendPositionXZ: 0
    m_KeepOriginalOrientation: 0
    m_KeepOriginalPositionY: 1
    m_KeepOriginalPositionXZ: 0
    m_HeightFromFeet: 0
    m_Mirror: 0
  m_EditorCurves: []
  m_EulerEditorCurves: []
  m_HasGenericRootTransform: 0
  m_HasMotionFloatCurves: 0
  m_Events: []
