%YAML 1.1
%TAG !u! tag:unity3d.com,2011:
--- !u!74 &7400000
AnimationClip:
  m_ObjectHideFlags: 0
  m_CorrespondingSourceObject: {fileID: 0}
  m_PrefabInstance: {fileID: 0}
  m_PrefabAsset: {fileID: 0}
  m_Name: Idel
  serializedVersion: 6
  m_Legacy: 0
  m_Compressed: 0
  m_UseHighQualityCurve: 1
  m_RotationCurves:
  - curve:
      serializedVersion: 2
      m_Curve:
      - serializedVersion: 3
        time: 0
        value: {x: -0.50000006, y: -0.49999997, z: 0.49999997, w: 0.5}
        inSlope: {x: 0, y: 0, z: 0, w: 0}
        outSlope: {x: 0, y: 0, z: 0, w: 0}
        tangentMode: 0
        weightedMode: 0
        inWeight: {x: 0.33333334, y: 0.33333334, z: 0.33333334, w: 0.33333334}
        outWeight: {x: 0.33333334, y: 0.33333334, z: 0.33333334, w: 0.33333334}
      - serializedVersion: 3
        time: 0.9583334
        value: {x: -0.50000006, y: -0.49999997, z: 0.49999997, w: 0.5}
        inSlope: {x: 0, y: 0, z: 0, w: 0}
        outSlope: {x: 0, y: 0, z: 0, w: 0}
        tangentMode: 0
        weightedMode: 0
        inWeight: {x: 0.33333334, y: 0.33333334, z: 0.33333334, w: 0.33333334}
        outWeight: {x: 0.33333334, y: 0.33333334, z: 0.33333334, w: 0.33333334}
      m_PreInfinity: 2
      m_PostInfinity: 2
      m_RotationOrder: 4
    path: Armature
  - curve:
      serializedVersion: 2
      m_Curve:
      - serializedVersion: 3
        time: 0
        value: {x: 0.09631347, y: 0.7005168, z: -0.7005167, w: 0.096313484}
        inSlope: {x: 0.0060020685, y: -0.0008254051, z: 0.0008254051, w: 0.0060018897}
        outSlope: {x: 0.0060020685, y: -0.0008254051, z: 0.0008254051, w: 0.0060018897}
        tangentMode: 0
        weightedMode: 0
        inWeight: {x: 0.33333334, y: 0.33333334, z: 0.33333334, w: 0.33333334}
        outWeight: {x: 0.33333334, y: 0.33333334, z: 0.33333334, w: 0.33333334}
      - serializedVersion: 3
        time: 0.625
        value: {x: 0.10558409, y: 0.6991796, z: -0.6991795, w: 0.10558411}
        inSlope: {x: -0.056757435, y: 0.00858164, z: -0.008580925, w: -0.056757435}
        outSlope: {x: -0.056757435, y: 0.00858164, z: -0.008580925, w: -0.056757435}
        tangentMode: 0
        weightedMode: 0
        inWeight: {x: 0.33333334, y: 0.33333334, z: 0.33333334, w: 0.33333334}
        outWeight: {x: 0.33333334, y: 0.33333334, z: 0.33333334, w: 0.33333334}
      - serializedVersion: 3
        time: 0.9583334
        value: {x: 0.09631347, y: 0.7005168, z: -0.7005167, w: 0.096313484}
        inSlope: {x: -0.0036402924, y: 0.0005006788, z: -0.0004992483, w: -0.0036402924}
        outSlope: {x: -0.0036402924, y: 0.0005006788, z: -0.0004992483, w: -0.0036402924}
        tangentMode: 0
        weightedMode: 0
        inWeight: {x: 0.33333334, y: 0.33333334, z: 0.33333334, w: 0.33333334}
        outWeight: {x: 0.33333334, y: 0.33333334, z: 0.33333334, w: 0.33333334}
      m_PreInfinity: 2
      m_PostInfinity: 2
      m_RotationOrder: 4
    path: Armature/Bone
  - curve:
      serializedVersion: 2
      m_Curve:
      - serializedVersion: 3
        time: 0
        value: {x: -0.000000011227615, y: 4.6101404e-16, z: 0.000000014901161, w: 1}
        inSlope: {x: 0, y: 0, z: 0, w: 0}
        outSlope: {x: 0, y: 0, z: 0, w: 0}
        tangentMode: 0
        weightedMode: 0
        inWeight: {x: 0.33333334, y: 0.33333334, z: 0.33333334, w: 0.33333334}
        outWeight: {x: 0.33333334, y: 0.33333334, z: 0.33333334, w: 0.33333334}
      - serializedVersion: 3
        time: 0.9583334
        value: {x: -0.000000011227615, y: 4.6101404e-16, z: 0.000000014901161, w: 1}
        inSlope: {x: 0, y: 0, z: 0, w: 0}
        outSlope: {x: 0, y: 0, z: 0, w: 0}
        tangentMode: 0
        weightedMode: 0
        inWeight: {x: 0.33333334, y: 0.33333334, z: 0.33333334, w: 0.33333334}
        outWeight: {x: 0.33333334, y: 0.33333334, z: 0.33333334, w: 0.33333334}
      m_PreInfinity: 2
      m_PostInfinity: 2
      m_RotationOrder: 4
    path: Armature/Bone/Bone_001
  - curve:
      serializedVersion: 2
      m_Curve:
      - serializedVersion: 3
        time: 0
        value: {x: -1.288053e-14, y: 1.0733775e-15, z: 1.382567e-29, w: 1}
        inSlope: {x: 0, y: 0, z: 0, w: 0}
        outSlope: {x: 0, y: 0, z: 0, w: 0}
        tangentMode: 0
        weightedMode: 0
        inWeight: {x: 0.33333334, y: 0.33333334, z: 0.33333334, w: 0.33333334}
        outWeight: {x: 0.33333334, y: 0.33333334, z: 0.33333334, w: 0.33333334}
      - serializedVersion: 3
        time: 0.9583334
        value: {x: -1.288053e-14, y: 1.0733775e-15, z: 1.382567e-29, w: 1}
        inSlope: {x: 0, y: 0, z: 0, w: 0}
        outSlope: {x: 0, y: 0, z: 0, w: 0}
        tangentMode: 0
        weightedMode: 0
        inWeight: {x: 0.33333334, y: 0.33333334, z: 0.33333334, w: 0.33333334}
        outWeight: {x: 0.33333334, y: 0.33333334, z: 0.33333334, w: 0.33333334}
      m_PreInfinity: 2
      m_PostInfinity: 2
      m_RotationOrder: 4
    path: Armature/Bone/Bone_001/Bone_002
  - curve:
      serializedVersion: 2
      m_Curve:
      - serializedVersion: 3
        time: 0
        value: {x: 5.77704e-15, y: 1.8325958e-16, z: -1.0586979e-30, w: 1}
        inSlope: {x: 0, y: 0, z: 0, w: 0}
        outSlope: {x: 0, y: 0, z: 0, w: 0}
        tangentMode: 0
        weightedMode: 0
        inWeight: {x: 0.33333334, y: 0.33333334, z: 0.33333334, w: 0.33333334}
        outWeight: {x: 0.33333334, y: 0.33333334, z: 0.33333334, w: 0.33333334}
      - serializedVersion: 3
        time: 0.9583334
        value: {x: 5.77704e-15, y: 1.8325958e-16, z: -1.0586979e-30, w: 1}
        inSlope: {x: 0, y: 0, z: 0, w: 0}
        outSlope: {x: 0, y: 0, z: 0, w: 0}
        tangentMode: 0
        weightedMode: 0
        inWeight: {x: 0.33333334, y: 0.33333334, z: 0.33333334, w: 0.33333334}
        outWeight: {x: 0.33333334, y: 0.33333334, z: 0.33333334, w: 0.33333334}
      m_PreInfinity: 2
      m_PostInfinity: 2
      m_RotationOrder: 4
    path: Armature/Bone/Bone_001/Bone_002/Bone_003
  - curve:
      serializedVersion: 2
      m_Curve:
      - serializedVersion: 3
        time: 0
        value: {x: 9.2459575e-15, y: -0.0000000040699932, z: 0.053908687, w: 0.9985459}
        inSlope: {x: 0, y: 0, z: 0, w: 0}
        outSlope: {x: 0, y: 0, z: 0, w: 0}
        tangentMode: 0
        weightedMode: 0
        inWeight: {x: 0.33333334, y: 0.33333334, z: 0.33333334, w: 0.33333334}
        outWeight: {x: 0.33333334, y: 0.33333334, z: 0.33333334, w: 0.33333334}
      - serializedVersion: 3
        time: 0.9583334
        value: {x: 9.2459575e-15, y: -0.0000000040699932, z: 0.053908687, w: 0.9985459}
        inSlope: {x: 0, y: 0, z: 0, w: 0}
        outSlope: {x: 0, y: 0, z: 0, w: 0}
        tangentMode: 0
        weightedMode: 0
        inWeight: {x: 0.33333334, y: 0.33333334, z: 0.33333334, w: 0.33333334}
        outWeight: {x: 0.33333334, y: 0.33333334, z: 0.33333334, w: 0.33333334}
      m_PreInfinity: 2
      m_PostInfinity: 2
      m_RotationOrder: 4
    path: Armature/Bone/Bone_001/Bone_002/Bone_003/Bone_004
  - curve:
      serializedVersion: 2
      m_Curve:
      - serializedVersion: 3
        time: 0
        value: {x: -4.851805e-15, y: -0.0000000063451715, z: 0.084044345, w: 0.99646205}
        inSlope: {x: 0, y: 0, z: 0, w: 0}
        outSlope: {x: 0, y: 0, z: 0, w: 0}
        tangentMode: 0
        weightedMode: 0
        inWeight: {x: 0.33333334, y: 0.33333334, z: 0.33333334, w: 0.33333334}
        outWeight: {x: 0.33333334, y: 0.33333334, z: 0.33333334, w: 0.33333334}
      - serializedVersion: 3
        time: 0.9583334
        value: {x: -4.851805e-15, y: -0.0000000063451715, z: 0.084044345, w: 0.99646205}
        inSlope: {x: 0, y: 0, z: 0, w: 0}
        outSlope: {x: 0, y: 0, z: 0, w: 0}
        tangentMode: 0
        weightedMode: 0
        inWeight: {x: 0.33333334, y: 0.33333334, z: 0.33333334, w: 0.33333334}
        outWeight: {x: 0.33333334, y: 0.33333334, z: 0.33333334, w: 0.33333334}
      m_PreInfinity: 2
      m_PostInfinity: 2
      m_RotationOrder: 4
    path: Armature/Bone/Bone_001/Bone_002/Bone_003/Bone_004/Bone_005
  m_CompressedRotationCurves: []
  m_EulerCurves: []
  m_PositionCurves:
  - curve:
      serializedVersion: 2
      m_Curve:
      - serializedVersion: 3
        time: 0
        value: {x: 8.228041, y: 1.4086756, z: -0.000000061575165}
        inSlope: {x: 0, y: 0, z: 0}
        outSlope: {x: 0, y: 0, z: 0}
        tangentMode: 0
        weightedMode: 0
        inWeight: {x: 0.33333334, y: 0.33333334, z: 0.33333334}
        outWeight: {x: 0.33333334, y: 0.33333334, z: 0.33333334}
      - serializedVersion: 3
        time: 0.9583333
        value: {x: 8.228041, y: 1.4086756, z: -0.000000061575165}
        inSlope: {x: 0, y: 0, z: 0}
        outSlope: {x: 0, y: 0, z: 0}
        tangentMode: 0
        weightedMode: 0
        inWeight: {x: 0.33333334, y: 0.33333334, z: 0.33333334}
        outWeight: {x: 0.33333334, y: 0.33333334, z: 0.33333334}
      m_PreInfinity: 2
      m_PostInfinity: 2
      m_RotationOrder: 4
    path: Armature
  - curve:
      serializedVersion: 2
      m_Curve:
      - serializedVersion: 3
        time: 0
        value: {x: -0, y: 0, z: 0}
        inSlope: {x: 0, y: 0, z: 0}
        outSlope: {x: 0, y: 0, z: 0}
        tangentMode: 0
        weightedMode: 0
        inWeight: {x: 0.33333334, y: 0.33333334, z: 0.33333334}
        outWeight: {x: 0.33333334, y: 0.33333334, z: 0.33333334}
      - serializedVersion: 3
        time: 0.9583333
        value: {x: -0, y: 0, z: 0}
        inSlope: {x: 0, y: 0, z: 0}
        outSlope: {x: 0, y: 0, z: 0}
        tangentMode: 0
        weightedMode: 0
        inWeight: {x: 0.33333334, y: 0.33333334, z: 0.33333334}
        outWeight: {x: 0.33333334, y: 0.33333334, z: 0.33333334}
      m_PreInfinity: 2
      m_PostInfinity: 2
      m_RotationOrder: 4
    path: Armature/Bone
  - curve:
      serializedVersion: 2
      m_Curve:
      - serializedVersion: 3
        time: 0
        value: {x: -3.3621526, y: 0.00000017881393, z: 0}
        inSlope: {x: -0.000005722046, y: -0, z: -1.68e-13}
        outSlope: {x: -0.000005722046, y: -0, z: -1.68e-13}
        tangentMode: 0
        weightedMode: 0
        inWeight: {x: 0.33333334, y: 0.33333334, z: 0.33333334}
        outWeight: {x: 0.33333334, y: 0.33333334, z: 0.33333334}
      - serializedVersion: 3
        time: 0.083333336
        value: {x: -3.3621526, y: 0.00000017881393, z: -3e-15}
        inSlope: {x: 0.000005722046, y: -0, z: 9.600001e-14}
        outSlope: {x: -0.000011444093, y: 0.0000014305116, z: -4.8000002e-14}
        tangentMode: 0
        weightedMode: 0
        inWeight: {x: 0.33333334, y: 0.33333334, z: 0.33333334}
        outWeight: {x: 0.33333334, y: 0.33333334, z: 0.33333334}
      - serializedVersion: 3
        time: 0.125
        value: {x: -3.362153, y: 0.00000023841858, z: -5e-15}
        inSlope: {x: -0.000011444093, y: 0.0000014305116, z: -4.8000002e-14}
        outSlope: {x: 0.000011444091, y: -0.0000014305114, z: 4.7999995e-14}
        tangentMode: 0
        weightedMode: 0
        inWeight: {x: 0.33333334, y: 0.33333334, z: 0.33333334}
        outWeight: {x: 0.33333334, y: 0.33333334, z: 0.33333334}
      - serializedVersion: 3
        time: 0.16666667
        value: {x: -3.3621526, y: 0.00000017881393, z: -3e-15}
        inSlope: {x: 0.000011444091, y: -0.0000014305114, z: 4.7999995e-14}
        outSlope: {x: -0, y: 0.0000014305118, z: 2.4000003e-14}
        tangentMode: 0
        weightedMode: 0
        inWeight: {x: 0.33333334, y: 0.33333334, z: 0.33333334}
        outWeight: {x: 0.33333334, y: 0.33333334, z: 0.33333334}
      - serializedVersion: 3
        time: 0.20833333
        value: {x: -3.3621526, y: 0.00000023841858, z: -2e-15}
        inSlope: {x: -0, y: 0.0000014305118, z: 2.4000003e-14}
        outSlope: {x: -0.0000057220454, y: -0, z: -1.4399999e-13}
        tangentMode: 0
        weightedMode: 0
        inWeight: {x: 0.33333334, y: 0.33333334, z: 0.33333334}
        outWeight: {x: 0.33333334, y: 0.33333334, z: 0.33333334}
      - serializedVersion: 3
        time: 0.25
        value: {x: -3.3621528, y: 0.00000023841858, z: -8e-15}
        inSlope: {x: -0.0000057220454, y: -0, z: -1.4399999e-13}
        outSlope: {x: -0, y: -0.0000014305118, z: -2.4000013e-14}
        tangentMode: 0
        weightedMode: 0
        inWeight: {x: 0.33333334, y: 0.33333334, z: 0.33333334}
        outWeight: {x: 0.33333334, y: 0.33333334, z: 0.33333334}
      - serializedVersion: 3
        time: 0.33333334
        value: {x: -3.3621526, y: 0.00000011920929, z: -5e-15}
        inSlope: {x: 0.000005722043, y: -0.0000014305108, z: 9.599996e-14}
        outSlope: {x: -0, y: 0.0000014305118, z: -2.4000003e-14}
        tangentMode: 0
        weightedMode: 0
        inWeight: {x: 0.33333334, y: 0.33333334, z: 0.33333334}
        outWeight: {x: 0.33333334, y: 0.33333334, z: 0.33333334}
      - serializedVersion: 3
        time: 0.375
        value: {x: -3.3621526, y: 0.00000017881393, z: -6e-15}
        inSlope: {x: -0, y: 0.0000014305118, z: -2.4000003e-14}
        outSlope: {x: -0.0000114440945, y: 0.0000042915353, z: 2.6400006e-13}
        tangentMode: 0
        weightedMode: 0
        inWeight: {x: 0.33333334, y: 0.33333334, z: 0.33333334}
        outWeight: {x: 0.33333334, y: 0.33333334, z: 0.33333334}
      - serializedVersion: 3
        time: 0.41666666
        value: {x: -3.362153, y: 0.00000035762787, z: 5e-15}
        inSlope: {x: -0.0000114440945, y: 0.0000042915353, z: 2.6400006e-13}
        outSlope: {x: -0, y: -0.0000028610216, z: -2.1599988e-13}
        tangentMode: 0
        weightedMode: 0
        inWeight: {x: 0.33333334, y: 0.33333334, z: 0.33333334}
        outWeight: {x: 0.33333334, y: 0.33333334, z: 0.33333334}
      - serializedVersion: 3
        time: 0.45833334
        value: {x: -3.362153, y: 0.00000023841858, z: -4e-15}
        inSlope: {x: -0, y: -0.0000028610216, z: -2.1599988e-13}
        outSlope: {x: -0, y: -0, z: 2.4000008e-14}
        tangentMode: 0
        weightedMode: 0
        inWeight: {x: 0.33333334, y: 0.33333334, z: 0.33333334}
        outWeight: {x: 0.33333334, y: 0.33333334, z: 0.33333334}
      - serializedVersion: 3
        time: 0.5
        value: {x: -3.362153, y: 0.00000023841858, z: -3e-15}
        inSlope: {x: -0, y: -0, z: 2.4000008e-14}
        outSlope: {x: 0.000005722043, y: -0.0000014305108, z: -7.199996e-14}
        tangentMode: 0
        weightedMode: 0
        inWeight: {x: 0.33333334, y: 0.33333334, z: 0.33333334}
        outWeight: {x: 0.33333334, y: 0.33333334, z: 0.33333334}
      - serializedVersion: 3
        time: 0.5416667
        value: {x: -3.3621528, y: 0.00000017881393, z: -6e-15}
        inSlope: {x: 0.000005722043, y: -0.0000014305108, z: -7.199996e-14}
        outSlope: {x: 0.0000057220514, y: 0.0000014305128, z: 7.2000064e-14}
        tangentMode: 0
        weightedMode: 0
        inWeight: {x: 0.33333334, y: 0.33333334, z: 0.33333334}
        outWeight: {x: 0.33333334, y: 0.33333334, z: 0.33333334}
      - serializedVersion: 3
        time: 0.5833333
        value: {x: -3.3621526, y: 0.00000023841858, z: -3e-15}
        inSlope: {x: 0.0000057220514, y: 0.0000014305128, z: 7.2000064e-14}
        outSlope: {x: -0, y: -0, z: -2.399999e-14}
        tangentMode: 0
        weightedMode: 0
        inWeight: {x: 0.33333334, y: 0.33333334, z: 0.33333334}
        outWeight: {x: 0.33333334, y: 0.33333334, z: 0.33333334}
      - serializedVersion: 3
        time: 0.7083333
        value: {x: -3.3621526, y: 0.00000023841858, z: -2e-15}
        inSlope: {x: -0, y: -0, z: 2.4000021e-14}
        outSlope: {x: -0, y: -0.0000014305108, z: -4.7999978e-14}
        tangentMode: 0
        weightedMode: 0
        inWeight: {x: 0.33333334, y: 0.33333334, z: 0.33333334}
        outWeight: {x: 0.33333334, y: 0.33333334, z: 0.33333334}
      - serializedVersion: 3
        time: 0.75
        value: {x: -3.3621526, y: 0.00000017881393, z: -4e-15}
        inSlope: {x: -0, y: -0.0000014305108, z: -4.7999978e-14}
        outSlope: {x: -0.000011444086, y: 0.0000014305108, z: 9.5999956e-14}
        tangentMode: 0
        weightedMode: 0
        inWeight: {x: 0.33333334, y: 0.33333334, z: 0.33333334}
        outWeight: {x: 0.33333334, y: 0.33333334, z: 0.33333334}
      - serializedVersion: 3
        time: 0.7916667
        value: {x: -3.362153, y: 0.00000023841858, z: 0}
        inSlope: {x: -0.000011444086, y: 0.0000014305108, z: 9.5999956e-14}
        outSlope: {x: 0.0000057220514, y: -0, z: -7.2000064e-14}
        tangentMode: 0
        weightedMode: 0
        inWeight: {x: 0.33333334, y: 0.33333334, z: 0.33333334}
        outWeight: {x: 0.33333334, y: 0.33333334, z: 0.33333334}
      - serializedVersion: 3
        time: 0.8333333
        value: {x: -3.3621528, y: 0.00000023841858, z: -3e-15}
        inSlope: {x: 0.0000057220514, y: -0, z: -7.2000064e-14}
        outSlope: {x: -0, y: -0.0000014305108, z: 9.5999956e-14}
        tangentMode: 0
        weightedMode: 0
        inWeight: {x: 0.33333334, y: 0.33333334, z: 0.33333334}
        outWeight: {x: 0.33333334, y: 0.33333334, z: 0.33333334}
      - serializedVersion: 3
        time: 0.875
        value: {x: -3.3621528, y: 0.00000017881393, z: 1e-15}
        inSlope: {x: -0, y: -0.0000014305108, z: 9.5999956e-14}
        outSlope: {x: -0, y: 0.0000014305108, z: -1.4399992e-13}
        tangentMode: 0
        weightedMode: 0
        inWeight: {x: 0.33333334, y: 0.33333334, z: 0.33333334}
        outWeight: {x: 0.33333334, y: 0.33333334, z: 0.33333334}
      - serializedVersion: 3
        time: 0.9166667
        value: {x: -3.3621528, y: 0.00000023841858, z: -5e-15}
        inSlope: {x: -0, y: 0.0000014305108, z: -1.4399992e-13}
        outSlope: {x: 0.0000057220514, y: -0.0000014305128, z: 1.200001e-13}
        tangentMode: 0
        weightedMode: 0
        inWeight: {x: 0.33333334, y: 0.33333334, z: 0.33333334}
        outWeight: {x: 0.33333334, y: 0.33333334, z: 0.33333334}
      - serializedVersion: 3
        time: 0.9583333
        value: {x: -3.3621526, y: 0.00000017881393, z: 0}
        inSlope: {x: 0.0000057220514, y: -0.0000014305128, z: 1.200001e-13}
        outSlope: {x: 0.0000057220514, y: -0.0000014305128, z: 1.200001e-13}
        tangentMode: 0
        weightedMode: 0
        inWeight: {x: 0.33333334, y: 0.33333334, z: 0.33333334}
        outWeight: {x: 0.33333334, y: 0.33333334, z: 0.33333334}
      m_PreInfinity: 2
      m_PostInfinity: 2
      m_RotationOrder: 4
    path: Armature/Bone/Bone_001
  - curve:
      serializedVersion: 2
      m_Curve:
      - serializedVersion: 3
        time: 0
        value: {x: -4.650451, y: 0.0000002384186, z: 0}
        inSlope: {x: -0.000011444092, y: -0.0000014305108, z: -7.1999996e-13}
        outSlope: {x: -0.000011444092, y: -0.0000014305108, z: -7.1999996e-13}
        tangentMode: 0
        weightedMode: 0
        inWeight: {x: 0.33333334, y: 0.33333334, z: 0.33333334}
        outWeight: {x: 0.33333334, y: 0.33333334, z: 0.33333334}
      - serializedVersion: 3
        time: 0.041666668
        value: {x: -4.6504517, y: 0.00000017881399, z: -3e-14}
        inSlope: {x: -0.000011444092, y: -0.0000014305108, z: -7.1999996e-13}
        outSlope: {x: -0.000011444092, y: -6.82121e-13, z: 6.48e-13}
        tangentMode: 0
        weightedMode: 0
        inWeight: {x: 0.33333334, y: 0.33333334, z: 0.33333334}
        outWeight: {x: 0.33333334, y: 0.33333334, z: 0.33333334}
      - serializedVersion: 3
        time: 0.083333336
        value: {x: -4.650452, y: 0.00000017881396, z: -3e-15}
        inSlope: {x: -0.000011444092, y: -6.82121e-13, z: 6.48e-13}
        outSlope: {x: 0.000011444093, y: 0.000005722045, z: 2.4e-14}
        tangentMode: 0
        weightedMode: 0
        inWeight: {x: 0.33333334, y: 0.33333334, z: 0.33333334}
        outWeight: {x: 0.33333334, y: 0.33333334, z: 0.33333334}
      - serializedVersion: 3
        time: 0.125
        value: {x: -4.6504517, y: 0.00000041723249, z: -2e-15}
        inSlope: {x: 0.000011444093, y: 0.000005722045, z: 2.4e-14}
        outSlope: {x: -0, y: -0.0000057220445, z: -5.279999e-13}
        tangentMode: 0
        weightedMode: 0
        inWeight: {x: 0.33333334, y: 0.33333334, z: 0.33333334}
        outWeight: {x: 0.33333334, y: 0.33333334, z: 0.33333334}
      - serializedVersion: 3
        time: 0.16666667
        value: {x: -4.6504517, y: 0.00000017881393, z: -2.4e-14}
        inSlope: {x: -0, y: -0.0000057220445, z: -5.279999e-13}
        outSlope: {x: -0, y: -6.821212e-13, z: 3.3600005e-13}
        tangentMode: 0
        weightedMode: 0
        inWeight: {x: 0.33333334, y: 0.33333334, z: 0.33333334}
        outWeight: {x: 0.33333334, y: 0.33333334, z: 0.33333334}
      - serializedVersion: 3
        time: 0.20833333
        value: {x: -4.6504517, y: 0.0000001788139, z: -1e-14}
        inSlope: {x: -0, y: -6.821212e-13, z: 3.3600005e-13}
        outSlope: {x: -0.000011444091, y: 0.0000057220454, z: 5.2799995e-13}
        tangentMode: 0
        weightedMode: 0
        inWeight: {x: 0.33333334, y: 0.33333334, z: 0.33333334}
        outWeight: {x: 0.33333334, y: 0.33333334, z: 0.33333334}
      - serializedVersion: 3
        time: 0.25
        value: {x: -4.650452, y: 0.00000041723249, z: 1.2e-14}
        inSlope: {x: -0.000011444091, y: 0.0000057220454, z: 5.2799995e-13}
        outSlope: {x: 0.000022888189, y: 0.0000014305139, z: -7.200002e-13}
        tangentMode: 0
        weightedMode: 0
        inWeight: {x: 0.33333334, y: 0.33333334, z: 0.33333334}
        outWeight: {x: 0.33333334, y: 0.33333334, z: 0.33333334}
      - serializedVersion: 3
        time: 0.29166666
        value: {x: -4.650451, y: 0.0000004768372, z: -1.8e-14}
        inSlope: {x: 0.000022888189, y: 0.0000014305139, z: -7.200002e-13}
        outSlope: {x: -0, y: -0.000011444089, z: -4.319998e-13}
        tangentMode: 0
        weightedMode: 0
        inWeight: {x: 0.33333334, y: 0.33333334, z: 0.33333334}
        outWeight: {x: 0.33333334, y: 0.33333334, z: 0.33333334}
      - serializedVersion: 3
        time: 0.33333334
        value: {x: -4.650451, y: -2.9e-14, z: -3.6e-14}
        inSlope: {x: -0, y: -0.000011444089, z: -4.319998e-13}
        outSlope: {x: -0.0000114440945, y: 0.0000057220486, z: 3.120001e-13}
        tangentMode: 0
        weightedMode: 0
        inWeight: {x: 0.33333334, y: 0.33333334, z: 0.33333334}
        outWeight: {x: 0.33333334, y: 0.33333334, z: 0.33333334}
      - serializedVersion: 3
        time: 0.375
        value: {x: -4.6504517, y: 0.0000002384186, z: -2.3e-14}
        inSlope: {x: -0.0000114440945, y: 0.0000057220486, z: 3.120001e-13}
        outSlope: {x: 0.0000114440945, y: -0.0000028610216, z: 5.040001e-13}
        tangentMode: 0
        weightedMode: 0
        inWeight: {x: 0.33333334, y: 0.33333334, z: 0.33333334}
        outWeight: {x: 0.33333334, y: 0.33333334, z: 0.33333334}
      - serializedVersion: 3
        time: 0.41666666
        value: {x: -4.650451, y: 0.0000001192094, z: -2e-15}
        inSlope: {x: 0.0000114440945, y: -0.0000028610216, z: 5.040001e-13}
        outSlope: {x: -0.000022888173, y: 0.000012874594, z: -3.3599984e-13}
        tangentMode: 0
        weightedMode: 0
        inWeight: {x: 0.33333334, y: 0.33333334, z: 0.33333334}
        outWeight: {x: 0.33333334, y: 0.33333334, z: 0.33333334}
      - serializedVersion: 3
        time: 0.45833334
        value: {x: -4.650452, y: 0.0000006556511, z: -1.6e-14}
        inSlope: {x: -0.000022888173, y: 0.000012874594, z: -3.3599984e-13}
        outSlope: {x: 0.000022888189, y: 1.3642424e-12, z: -4.8000026e-14}
        tangentMode: 0
        weightedMode: 0
        inWeight: {x: 0.33333334, y: 0.33333334, z: 0.33333334}
        outWeight: {x: 0.33333334, y: 0.33333334, z: 0.33333334}
      - serializedVersion: 3
        time: 0.5
        value: {x: -4.650451, y: 0.00000065565115, z: -1.8e-14}
        inSlope: {x: 0.000022888189, y: 1.3642424e-12, z: -4.8000026e-14}
        outSlope: {x: -0.000022888173, y: 0.0000014305094, z: 7.4399964e-13}
        tangentMode: 0
        weightedMode: 0
        inWeight: {x: 0.33333334, y: 0.33333334, z: 0.33333334}
        outWeight: {x: 0.33333334, y: 0.33333334, z: 0.33333334}
      - serializedVersion: 3
        time: 0.5416667
        value: {x: -4.650452, y: 0.00000071525574, z: 1.3e-14}
        inSlope: {x: -0.000022888173, y: 0.0000014305094, z: 7.4399964e-13}
        outSlope: {x: 0.000011444103, y: -0.000012874616, z: -8.400008e-13}
        tangentMode: 0
        weightedMode: 0
        inWeight: {x: 0.33333334, y: 0.33333334, z: 0.33333334}
        outWeight: {x: 0.33333334, y: 0.33333334, z: 0.33333334}
      - serializedVersion: 3
        time: 0.5833333
        value: {x: -4.6504517, y: 0.00000017881393, z: -2.2e-14}
        inSlope: {x: 0.000011444103, y: -0.000012874616, z: -8.400008e-13}
        outSlope: {x: 0.000011444086, y: 0.0000057220445, z: 1.9199991e-13}
        tangentMode: 0
        weightedMode: 0
        inWeight: {x: 0.33333334, y: 0.33333334, z: 0.33333334}
        outWeight: {x: 0.33333334, y: 0.33333334, z: 0.33333334}
      - serializedVersion: 3
        time: 0.625
        value: {x: -4.650451, y: 0.00000041723257, z: -1.4e-14}
        inSlope: {x: 0.000011444086, y: 0.0000057220445, z: 1.9199991e-13}
        outSlope: {x: -0, y: -0.000005722043, z: -4.3199976e-13}
        tangentMode: 0
        weightedMode: 0
        inWeight: {x: 0.33333334, y: 0.33333334, z: 0.33333334}
        outWeight: {x: 0.33333334, y: 0.33333334, z: 0.33333334}
      - serializedVersion: 3
        time: 0.6666667
        value: {x: -4.650451, y: 0.00000017881399, z: -3.2e-14}
        inSlope: {x: -0, y: -0.000005722043, z: -4.3199976e-13}
        outSlope: {x: -0.000011444103, y: -2.046365e-12, z: 5.280005e-13}
        tangentMode: 0
        weightedMode: 0
        inWeight: {x: 0.33333334, y: 0.33333334, z: 0.33333334}
        outWeight: {x: 0.33333334, y: 0.33333334, z: 0.33333334}
      - serializedVersion: 3
        time: 0.7083333
        value: {x: -4.6504517, y: 0.0000001788139, z: -1e-14}
        inSlope: {x: -0.000011444103, y: -2.046365e-12, z: 5.280005e-13}
        outSlope: {x: -0, y: 0.0000071525546, z: 6.239997e-13}
        tangentMode: 0
        weightedMode: 0
        inWeight: {x: 0.33333334, y: 0.33333334, z: 0.33333334}
        outWeight: {x: 0.33333334, y: 0.33333334, z: 0.33333334}
      - serializedVersion: 3
        time: 0.75
        value: {x: -4.6504517, y: 0.00000047683716, z: 1.6e-14}
        inSlope: {x: -0, y: 0.0000071525546, z: 6.239997e-13}
        outSlope: {x: 0.000022888173, y: -0.0000028610195, z: -5.039998e-13}
        tangentMode: 0
        weightedMode: 0
        inWeight: {x: 0.33333334, y: 0.33333334, z: 0.33333334}
        outWeight: {x: 0.33333334, y: 0.33333334, z: 0.33333334}
      - serializedVersion: 3
        time: 0.7916667
        value: {x: -4.6504507, y: 0.00000035762795, z: -5e-15}
        inSlope: {x: 0.000022888173, y: -0.0000028610195, z: -5.039998e-13}
        outSlope: {x: -0.000022888205, y: 0.0000014305122, z: -2.8800028e-13}
        tangentMode: 0
        weightedMode: 0
        inWeight: {x: 0.33333334, y: 0.33333334, z: 0.33333334}
        outWeight: {x: 0.33333334, y: 0.33333334, z: 0.33333334}
      - serializedVersion: 3
        time: 0.8333333
        value: {x: -4.6504517, y: 0.00000041723257, z: -1.7e-14}
        inSlope: {x: -0.000022888205, y: 0.0000014305122, z: -2.8800028e-13}
        outSlope: {x: -0, y: -0.0000014305115, z: 2.6399987e-13}
        tangentMode: 0
        weightedMode: 0
        inWeight: {x: 0.33333334, y: 0.33333334, z: 0.33333334}
        outWeight: {x: 0.33333334, y: 0.33333334, z: 0.33333334}
      - serializedVersion: 3
        time: 0.875
        value: {x: -4.6504517, y: 0.0000003576279, z: -6e-15}
        inSlope: {x: -0, y: -0.0000014305115, z: 2.6399987e-13}
        outSlope: {x: -0, y: 0.0000014305115, z: -4.5599977e-13}
        tangentMode: 0
        weightedMode: 0
        inWeight: {x: 0.33333334, y: 0.33333334, z: 0.33333334}
        outWeight: {x: 0.33333334, y: 0.33333334, z: 0.33333334}
      - serializedVersion: 3
        time: 0.9166667
        value: {x: -4.6504517, y: 0.00000041723257, z: -2.5e-14}
        inSlope: {x: -0, y: 0.0000014305115, z: -4.5599977e-13}
        outSlope: {x: 0.000011444103, y: -0.0000042915394, z: 6.0000057e-13}
        tangentMode: 0
        weightedMode: 0
        inWeight: {x: 0.33333334, y: 0.33333334, z: 0.33333334}
        outWeight: {x: 0.33333334, y: 0.33333334, z: 0.33333334}
      - serializedVersion: 3
        time: 0.9583333
        value: {x: -4.650451, y: 0.0000002384186, z: 0}
        inSlope: {x: 0.000011444103, y: -0.0000042915394, z: 6.0000057e-13}
        outSlope: {x: 0.000011444103, y: -0.0000042915394, z: 6.0000057e-13}
        tangentMode: 0
        weightedMode: 0
        inWeight: {x: 0.33333334, y: 0.33333334, z: 0.33333334}
        outWeight: {x: 0.33333334, y: 0.33333334, z: 0.33333334}
      m_PreInfinity: 2
      m_PostInfinity: 2
      m_RotationOrder: 4
    path: Armature/Bone/Bone_001/Bone_002
  - curve:
      serializedVersion: 2
      m_Curve:
      - serializedVersion: 3
        time: 0
        value: {x: -3.8591774, y: 0.00000023841864, z: 2.8e-14}
        inSlope: {x: -0.000017166138, y: 0.0000057220473, z: -1.2240001e-12}
        outSlope: {x: -0.000017166138, y: 0.0000057220473, z: -1.2240001e-12}
        tangentMode: 0
        weightedMode: 0
        inWeight: {x: 0.33333334, y: 0.33333334, z: 0.33333334}
        outWeight: {x: 0.33333334, y: 0.33333334, z: 0.33333334}
      - serializedVersion: 3
        time: 0.041666668
        value: {x: -3.859178, y: 0.0000004768373, z: -2.3e-14}
        inSlope: {x: -0.000017166138, y: 0.0000057220473, z: -1.2240001e-12}
        outSlope: {x: 0.000011444092, y: -0.0000057220473, z: 1.9200002e-13}
        tangentMode: 0
        weightedMode: 0
        inWeight: {x: 0.33333334, y: 0.33333334, z: 0.33333334}
        outWeight: {x: 0.33333334, y: 0.33333334, z: 0.33333334}
      - serializedVersion: 3
        time: 0.083333336
        value: {x: -3.8591776, y: 0.00000023841864, z: -1.5e-14}
        inSlope: {x: 0.000011444092, y: -0.0000057220473, z: 1.9200002e-13}
        outSlope: {x: 0.000022888185, y: -2.7284843e-12, z: 8.64e-13}
        tangentMode: 0
        weightedMode: 0
        inWeight: {x: 0.33333334, y: 0.33333334, z: 0.33333334}
        outWeight: {x: 0.33333334, y: 0.33333334, z: 0.33333334}
      - serializedVersion: 3
        time: 0.125
        value: {x: -3.8591766, y: 0.00000023841852, z: 2.1e-14}
        inSlope: {x: 0.000022888185, y: -2.7284843e-12, z: 8.64e-13}
        outSlope: {x: -0.000011444091, y: -0.000005722044, z: -1.1519999e-12}
        tangentMode: 0
        weightedMode: 0
        inWeight: {x: 0.33333334, y: 0.33333334, z: 0.33333334}
        outWeight: {x: 0.33333334, y: 0.33333334, z: 0.33333334}
      - serializedVersion: 3
        time: 0.16666667
        value: {x: -3.859177, y: 0, z: -2.7e-14}
        inSlope: {x: -0.000011444091, y: -0.000005722044, z: -1.1519999e-12}
        outSlope: {x: -0.0000057220473, y: 0.000011444094, z: 4.560001e-13}
        tangentMode: 0
        weightedMode: 0
        inWeight: {x: 0.33333334, y: 0.33333334, z: 0.33333334}
        outWeight: {x: 0.33333334, y: 0.33333334, z: 0.33333334}
      - serializedVersion: 3
        time: 0.20833333
        value: {x: -3.8591774, y: 0.0000004768371, z: -8e-15}
        inSlope: {x: -0.0000057220473, y: 0.000011444094, z: 4.560001e-13}
        outSlope: {x: -0.000011444091, y: -0, z: 3.8399996e-13}
        tangentMode: 0
        weightedMode: 0
        inWeight: {x: 0.33333334, y: 0.33333334, z: 0.33333334}
        outWeight: {x: 0.33333334, y: 0.33333334, z: 0.33333334}
      - serializedVersion: 3
        time: 0.25
        value: {x: -3.8591778, y: 0.0000004768371, z: 8e-15}
        inSlope: {x: -0.000011444091, y: -0, z: 3.8399996e-13}
        outSlope: {x: 0.000017166141, y: -0.000011444089, z: -1.4160003e-12}
        tangentMode: 0
        weightedMode: 0
        inWeight: {x: 0.33333334, y: 0.33333334, z: 0.33333334}
        outWeight: {x: 0.33333334, y: 0.33333334, z: 0.33333334}
      - serializedVersion: 3
        time: 0.29166666
        value: {x: -3.859177, y: 1.7e-13, z: -5.1e-14}
        inSlope: {x: 0.000017166141, y: -0.000011444089, z: -1.4160003e-12}
        outSlope: {x: -0.000022888173, y: 0.000011444082, z: 1.6079992e-12}
        tangentMode: 0
        weightedMode: 0
        inWeight: {x: 0.33333334, y: 0.33333334, z: 0.33333334}
        outWeight: {x: 0.33333334, y: 0.33333334, z: 0.33333334}
      - serializedVersion: 3
        time: 0.33333334
        value: {x: -3.859178, y: 0.00000047683713, z: 1.6e-14}
        inSlope: {x: -0.000022888173, y: 0.000011444082, z: 1.6079992e-12}
        outSlope: {x: 0.0000114440945, y: 2.0463635e-12, z: -8.160002e-13}
        tangentMode: 0
        weightedMode: 0
        inWeight: {x: 0.33333334, y: 0.33333334, z: 0.33333334}
        outWeight: {x: 0.33333334, y: 0.33333334, z: 0.33333334}
      - serializedVersion: 3
        time: 0.375
        value: {x: -3.8591776, y: 0.0000004768372, z: -1.8e-14}
        inSlope: {x: 0.0000114440945, y: 2.0463635e-12, z: -8.160002e-13}
        outSlope: {x: 0.0000057220473, y: -0.000005722043, z: 3.120001e-13}
        tangentMode: 0
        weightedMode: 0
        inWeight: {x: 0.33333334, y: 0.33333334, z: 0.33333334}
        outWeight: {x: 0.33333334, y: 0.33333334, z: 0.33333334}
      - serializedVersion: 3
        time: 0.41666666
        value: {x: -3.8591774, y: 0.0000002384188, z: -5e-15}
        inSlope: {x: 0.0000057220473, y: -0.000005722043, z: 3.120001e-13}
        outSlope: {x: -0.000011444086, y: 0.000005722039, z: 7.9199966e-13}
        tangentMode: 0
        weightedMode: 0
        inWeight: {x: 0.33333334, y: 0.33333334, z: 0.33333334}
        outWeight: {x: 0.33333334, y: 0.33333334, z: 0.33333334}
      - serializedVersion: 3
        time: 0.5
        value: {x: -3.859177, y: 0.0000007152559, z: 1.1e-14}
        inSlope: {x: 0.000017166141, y: 0.00000572205, z: -4.080001e-13}
        outSlope: {x: -0, y: -0.000011444089, z: -2.6399987e-13}
        tangentMode: 0
        weightedMode: 0
        inWeight: {x: 0.33333334, y: 0.33333334, z: 0.33333334}
        outWeight: {x: 0.33333334, y: 0.33333334, z: 0.33333334}
      - serializedVersion: 3
        time: 0.5416667
        value: {x: -3.859177, y: 0.00000023841864, z: 0}
        inSlope: {x: -0, y: -0.000011444089, z: -2.6399987e-13}
        outSlope: {x: -0, y: -0.0000057220527, z: 3.120003e-13}
        tangentMode: 0
        weightedMode: 0
        inWeight: {x: 0.33333334, y: 0.33333334, z: 0.33333334}
        outWeight: {x: 0.33333334, y: 0.33333334, z: 0.33333334}
      - serializedVersion: 3
        time: 0.5833333
        value: {x: -3.859177, y: -1e-15, z: 1.3e-14}
        inSlope: {x: -0, y: -0.0000057220527, z: 3.120003e-13}
        outSlope: {x: 0.000011444086, y: 0.000005722046, z: -1.3439993e-12}
        tangentMode: 0
        weightedMode: 0
        inWeight: {x: 0.33333334, y: 0.33333334, z: 0.33333334}
        outWeight: {x: 0.33333334, y: 0.33333334, z: 0.33333334}
      - serializedVersion: 3
        time: 0.625
        value: {x: -3.8591766, y: 0.0000002384187, z: -4.3e-14}
        inSlope: {x: 0.000011444086, y: 0.000005722046, z: -1.3439993e-12}
        outSlope: {x: -0.000022888173, y: -0, z: -1.6799989e-13}
        tangentMode: 0
        weightedMode: 0
        inWeight: {x: 0.33333334, y: 0.33333334, z: 0.33333334}
        outWeight: {x: 0.33333334, y: 0.33333334, z: 0.33333334}
      - serializedVersion: 3
        time: 0.6666667
        value: {x: -3.8591776, y: 0.0000002384187, z: -5e-14}
        inSlope: {x: -0.000022888173, y: -0, z: -1.6799989e-13}
        outSlope: {x: 0.0000057220514, y: 0.0000057220473, z: 1.008001e-12}
        tangentMode: 0
        weightedMode: 0
        inWeight: {x: 0.33333334, y: 0.33333334, z: 0.33333334}
        outWeight: {x: 0.33333334, y: 0.33333334, z: 0.33333334}
      - serializedVersion: 3
        time: 0.7083333
        value: {x: -3.8591774, y: 0.0000004768371, z: -8e-15}
        inSlope: {x: 0.0000057220514, y: 0.0000057220473, z: 1.008001e-12}
        outSlope: {x: -0.00001716613, y: 2.7284828e-12, z: -2.159999e-13}
        tangentMode: 0
        weightedMode: 0
        inWeight: {x: 0.33333334, y: 0.33333334, z: 0.33333334}
        outWeight: {x: 0.33333334, y: 0.33333334, z: 0.33333334}
      - serializedVersion: 3
        time: 0.7916667
        value: {x: -3.8591776, y: 0.00000047683733, z: -3e-15}
        inSlope: {x: 0.000011444086, y: 2.7284828e-12, z: 3.3599984e-13}
        outSlope: {x: -0, y: -0.000011444103, z: -1.3680013e-12}
        tangentMode: 0
        weightedMode: 0
        inWeight: {x: 0.33333334, y: 0.33333334, z: 0.33333334}
        outWeight: {x: 0.33333334, y: 0.33333334, z: 0.33333334}
      - serializedVersion: 3
        time: 0.8333333
        value: {x: -3.8591776, y: 1.71e-13, z: -6e-14}
        inSlope: {x: -0, y: -0.000011444103, z: -1.3680013e-12}
        outSlope: {x: 0.000005722043, y: -2.735999e-12, z: 8.1599956e-13}
        tangentMode: 0
        weightedMode: 0
        inWeight: {x: 0.33333334, y: 0.33333334, z: 0.33333334}
        outWeight: {x: 0.33333334, y: 0.33333334, z: 0.33333334}
      - serializedVersion: 3
        time: 0.9166667
        value: {x: -3.859177, y: 1.71e-13, z: -2.8e-14}
        inSlope: {x: 0.000005722043, y: 2.735999e-12, z: -4.7999992e-14}
        outSlope: {x: -0.0000057220514, y: 0.0000057220486, z: 1.3440013e-12}
        tangentMode: 0
        weightedMode: 0
        inWeight: {x: 0.33333334, y: 0.33333334, z: 0.33333334}
        outWeight: {x: 0.33333334, y: 0.33333334, z: 0.33333334}
      - serializedVersion: 3
        time: 0.9583333
        value: {x: -3.8591774, y: 0.00000023841864, z: 2.8e-14}
        inSlope: {x: -0.0000057220514, y: 0.0000057220486, z: 1.3440013e-12}
        outSlope: {x: -0.0000057220514, y: 0.0000057220486, z: 1.3440013e-12}
        tangentMode: 0
        weightedMode: 0
        inWeight: {x: 0.33333334, y: 0.33333334, z: 0.33333334}
        outWeight: {x: 0.33333334, y: 0.33333334, z: 0.33333334}
      m_PreInfinity: 2
      m_PostInfinity: 2
      m_RotationOrder: 4
    path: Armature/Bone/Bone_001/Bone_002/Bone_003
  - curve:
      serializedVersion: 2
      m_Curve:
      - serializedVersion: 3
        time: 0
        value: {x: -3.8168569, y: 0.00000023841864, z: 0}
        inSlope: {x: -0.000045776367, y: -0.000005722042, z: -1.92e-12}
        outSlope: {x: -0.000045776367, y: -0.000005722042, z: -1.92e-12}
        tangentMode: 0
        weightedMode: 0
        inWeight: {x: 0.33333334, y: 0.33333334, z: 0.33333334}
        outWeight: {x: 0.33333334, y: 0.33333334, z: 0.33333334}
      - serializedVersion: 3
        time: 0.041666668
        value: {x: -3.8168588, y: 2.27e-13, z: -8e-14}
        inSlope: {x: -0.000045776367, y: -0.000005722042, z: -1.92e-12}
        outSlope: {x: -0.000011444092, y: 0.000011444087, z: 2.496e-12}
        tangentMode: 0
        weightedMode: 0
        inWeight: {x: 0.33333334, y: 0.33333334, z: 0.33333334}
        outWeight: {x: 0.33333334, y: 0.33333334, z: 0.33333334}
      - serializedVersion: 3
        time: 0.083333336
        value: {x: -3.8168592, y: 0.0000004768372, z: 2.4e-14}
        inSlope: {x: -0.000011444092, y: 0.000011444087, z: 2.496e-12}
        outSlope: {x: 0.00001716614, y: -0.000005722049, z: -4.7999978e-14}
        tangentMode: 0
        weightedMode: 0
        inWeight: {x: 0.33333334, y: 0.33333334, z: 0.33333334}
        outWeight: {x: 0.33333334, y: 0.33333334, z: 0.33333334}
      - serializedVersion: 3
        time: 0.125
        value: {x: -3.8168585, y: 0.00000023841852, z: 2.2e-14}
        inSlope: {x: 0.00001716614, y: -0.000005722049, z: -4.7999978e-14}
        outSlope: {x: 0.000017166136, y: 0.0000057220464, z: -1.5119998e-12}
        tangentMode: 0
        weightedMode: 0
        inWeight: {x: 0.33333334, y: 0.33333334, z: 0.33333334}
        outWeight: {x: 0.33333334, y: 0.33333334, z: 0.33333334}
      - serializedVersion: 3
        time: 0.16666667
        value: {x: -3.8168578, y: 0.00000047683716, z: -4.1e-14}
        inSlope: {x: 0.000017166136, y: 0.0000057220464, z: -1.5119998e-12}
        outSlope: {x: -0.000034332283, y: -2.7284848e-12, z: 1.9200004e-12}
        tangentMode: 0
        weightedMode: 0
        inWeight: {x: 0.33333334, y: 0.33333334, z: 0.33333334}
        outWeight: {x: 0.33333334, y: 0.33333334, z: 0.33333334}
      - serializedVersion: 3
        time: 0.20833333
        value: {x: -3.8168592, y: 0.00000047683704, z: 3.9e-14}
        inSlope: {x: -0.000034332283, y: -2.7284848e-12, z: 1.9200004e-12}
        outSlope: {x: -0.0000057220454, y: 0.0000057220454, z: -2.6399992e-13}
        tangentMode: 0
        weightedMode: 0
        inWeight: {x: 0.33333334, y: 0.33333334, z: 0.33333334}
        outWeight: {x: 0.33333334, y: 0.33333334, z: 0.33333334}
      - serializedVersion: 3
        time: 0.25
        value: {x: -3.8168595, y: 0.0000007152556, z: 2.8e-14}
        inSlope: {x: -0.0000057220454, y: 0.0000057220454, z: -2.6399992e-13}
        outSlope: {x: 0.000017166141, y: 6.821212e-12, z: -2.0640004e-12}
        tangentMode: 0
        weightedMode: 0
        inWeight: {x: 0.33333334, y: 0.33333334, z: 0.33333334}
        outWeight: {x: 0.33333334, y: 0.33333334, z: 0.33333334}
      - serializedVersion: 3
        time: 0.29166666
        value: {x: -3.8168588, y: 0.0000007152559, z: -5.8e-14}
        inSlope: {x: 0.000017166141, y: 6.821212e-12, z: -2.0640004e-12}
        outSlope: {x: -0.00003433226, y: -0.000011444093, z: 1.1279994e-12}
        tangentMode: 0
        weightedMode: 0
        inWeight: {x: 0.33333334, y: 0.33333334, z: 0.33333334}
        outWeight: {x: 0.33333334, y: 0.33333334, z: 0.33333334}
      - serializedVersion: 3
        time: 0.33333334
        value: {x: -3.8168602, y: 0.00000023841847, z: -1.1e-14}
        inSlope: {x: -0.00003433226, y: -0.000011444093, z: 1.1279994e-12}
        outSlope: {x: 0.000045776378, y: -0.000005722042, z: -6.000002e-13}
        tangentMode: 0
        weightedMode: 0
        inWeight: {x: 0.33333334, y: 0.33333334, z: 0.33333334}
        outWeight: {x: 0.33333334, y: 0.33333334, z: 0.33333334}
      - serializedVersion: 3
        time: 0.375
        value: {x: -3.8168583, y: 1.12e-13, z: -3.6e-14}
        inSlope: {x: 0.000045776378, y: -0.000005722042, z: -6.000002e-13}
        outSlope: {x: -0.0000057220473, y: 0.0000057220554, z: 4.320001e-13}
        tangentMode: 0
        weightedMode: 0
        inWeight: {x: 0.33333334, y: 0.33333334, z: 0.33333334}
        outWeight: {x: 0.33333334, y: 0.33333334, z: 0.33333334}
      - serializedVersion: 3
        time: 0.41666666
        value: {x: -3.8168585, y: 0.00000023841903, z: -1.8e-14}
        inSlope: {x: -0.0000057220473, y: 0.0000057220554, z: 4.320001e-13}
        outSlope: {x: -0.000028610217, y: -8.185449e-12, z: 6.9599974e-13}
        tangentMode: 0
        weightedMode: 0
        inWeight: {x: 0.33333334, y: 0.33333334, z: 0.33333334}
        outWeight: {x: 0.33333334, y: 0.33333334, z: 0.33333334}
      - serializedVersion: 3
        time: 0.5
        value: {x: -3.8168585, y: 0.0000002384188, z: -2.8e-14}
        inSlope: {x: 0.000028610237, y: 2.7284848e-12, z: -9.360002e-13}
        outSlope: {x: 0.000011444086, y: -0.000005722046, z: 1.1039995e-12}
        tangentMode: 0
        weightedMode: 0
        inWeight: {x: 0.33333334, y: 0.33333334, z: 0.33333334}
        outWeight: {x: 0.33333334, y: 0.33333334, z: 0.33333334}
      - serializedVersion: 3
        time: 0.5416667
        value: {x: -3.816858, y: 1.12e-13, z: 1.8e-14}
        inSlope: {x: 0.000011444086, y: -0.000005722046, z: 1.1039995e-12}
        outSlope: {x: -0.000017166154, y: -2.7360026e-12, z: -6.000006e-13}
        tangentMode: 0
        weightedMode: 0
        inWeight: {x: 0.33333334, y: 0.33333334, z: 0.33333334}
        outWeight: {x: 0.33333334, y: 0.33333334, z: 0.33333334}
      - serializedVersion: 3
        time: 0.5833333
        value: {x: -3.8168588, y: -2e-15, z: -7e-15}
        inSlope: {x: -0.000017166154, y: -2.7360026e-12, z: -6.000006e-13}
        outSlope: {x: -0.000011444086, y: -0.000005722039, z: -7.9199966e-13}
        tangentMode: 0
        weightedMode: 0
        inWeight: {x: 0.33333334, y: 0.33333334, z: 0.33333334}
        outWeight: {x: 0.33333334, y: 0.33333334, z: 0.33333334}
      - serializedVersion: 3
        time: 0.625
        value: {x: -3.8168592, y: -0.00000023841841, z: -4e-14}
        inSlope: {x: -0.000011444086, y: -0.000005722039, z: -7.9199966e-13}
        outSlope: {x: 0.000011444086, y: 0.000017166129, z: 4.5599977e-13}
        tangentMode: 0
        weightedMode: 0
        inWeight: {x: 0.33333334, y: 0.33333334, z: 0.33333334}
        outWeight: {x: 0.33333334, y: 0.33333334, z: 0.33333334}
      - serializedVersion: 3
        time: 0.6666667
        value: {x: -3.8168588, y: 0.0000004768373, z: -2.1e-14}
        inSlope: {x: 0.000011444086, y: 0.000017166129, z: 4.5599977e-13}
        outSlope: {x: -0.000011444103, y: -5.4569734e-12, z: 1.4400013e-12}
        tangentMode: 0
        weightedMode: 0
        inWeight: {x: 0.33333334, y: 0.33333334, z: 0.33333334}
        outWeight: {x: 0.33333334, y: 0.33333334, z: 0.33333334}
      - serializedVersion: 3
        time: 0.7083333
        value: {x: -3.8168592, y: 0.00000047683704, z: 3.9e-14}
        inSlope: {x: -0.000011444103, y: -5.4569734e-12, z: 1.4400013e-12}
        outSlope: {x: 0.000011444086, y: -0.000005722039, z: -7.4399964e-13}
        tangentMode: 0
        weightedMode: 0
        inWeight: {x: 0.33333334, y: 0.33333334, z: 0.33333334}
        outWeight: {x: 0.33333334, y: 0.33333334, z: 0.33333334}
      - serializedVersion: 3
        time: 0.75
        value: {x: -3.8168588, y: 0.00000023841864, z: 8e-15}
        inSlope: {x: 0.000011444086, y: -0.000005722039, z: -7.4399964e-13}
        outSlope: {x: -0.000011444086, y: 0.0000057220473, z: -7.6799965e-13}
        tangentMode: 0
        weightedMode: 0
        inWeight: {x: 0.33333334, y: 0.33333334, z: 0.33333334}
        outWeight: {x: 0.33333334, y: 0.33333334, z: 0.33333334}
      - serializedVersion: 3
        time: 0.7916667
        value: {x: -3.8168592, y: 0.0000004768374, z: -2.4e-14}
        inSlope: {x: -0.000011444086, y: 0.0000057220473, z: -7.6799965e-13}
        outSlope: {x: 0.000011444103, y: -0.0000057220527, z: -2.8800034e-13}
        tangentMode: 0
        weightedMode: 0
        inWeight: {x: 0.33333334, y: 0.33333334, z: 0.33333334}
        outWeight: {x: 0.33333334, y: 0.33333334, z: 0.33333334}
      - serializedVersion: 3
        time: 0.8333333
        value: {x: -3.8168588, y: 0.00000023841875, z: -3.6e-14}
        inSlope: {x: 0.000011444103, y: -0.0000057220527, z: -2.8800034e-13}
        outSlope: {x: -0, y: 0.000011444084, z: 1.0559995e-12}
        tangentMode: 0
        weightedMode: 0
        inWeight: {x: 0.33333334, y: 0.33333334, z: 0.33333334}
        outWeight: {x: 0.33333334, y: 0.33333334, z: 0.33333334}
      - serializedVersion: 3
        time: 0.875
        value: {x: -3.8168588, y: 0.0000007152558, z: 8e-15}
        inSlope: {x: -0, y: 0.000011444084, z: 1.0559995e-12}
        outSlope: {x: -0.000022888173, y: 2.7284828e-12, z: 5.9999976e-13}
        tangentMode: 0
        weightedMode: 0
        inWeight: {x: 0.33333334, y: 0.33333334, z: 0.33333334}
        outWeight: {x: 0.33333334, y: 0.33333334, z: 0.33333334}
      - serializedVersion: 3
        time: 0.9166667
        value: {x: -3.8168597, y: 0.0000007152559, z: 3.3e-14}
        inSlope: {x: -0.000022888173, y: 2.7284828e-12, z: 5.9999976e-13}
        outSlope: {x: 0.000068664616, y: -0.000011444105, z: -7.9200074e-13}
        tangentMode: 0
        weightedMode: 0
        inWeight: {x: 0.33333334, y: 0.33333334, z: 0.33333334}
        outWeight: {x: 0.33333334, y: 0.33333334, z: 0.33333334}
      - serializedVersion: 3
        time: 0.9583333
        value: {x: -3.8168569, y: 0.00000023841864, z: 0}
        inSlope: {x: 0.000068664616, y: -0.000011444105, z: -7.9200074e-13}
        outSlope: {x: 0.000068664616, y: -0.000011444105, z: -7.9200074e-13}
        tangentMode: 0
        weightedMode: 0
        inWeight: {x: 0.33333334, y: 0.33333334, z: 0.33333334}
        outWeight: {x: 0.33333334, y: 0.33333334, z: 0.33333334}
      m_PreInfinity: 2
      m_PostInfinity: 2
      m_RotationOrder: 4
    path: Armature/Bone/Bone_001/Bone_002/Bone_003/Bone_004
  - curve:
      serializedVersion: 2
      m_Curve:
      - serializedVersion: 3
        time: 0
        value: {x: -3.7705731, y: 0.00000023841858, z: 2.2e-14}
        inSlope: {x: 0.000017166138, y: 0.000008583069, z: -2.16e-13}
        outSlope: {x: 0.000017166138, y: 0.000008583069, z: -2.16e-13}
        tangentMode: 0
        weightedMode: 0
        inWeight: {x: 0.33333334, y: 0.33333334, z: 0.33333334}
        outWeight: {x: 0.33333334, y: 0.33333334, z: 0.33333334}
      - serializedVersion: 3
        time: 0.041666668
        value: {x: -3.7705724, y: 0.00000059604645, z: 1.3e-14}
        inSlope: {x: 0.000017166138, y: 0.000008583069, z: -2.16e-13}
        outSlope: {x: -0.000005722046, y: -0, z: 6.9599995e-13}
        tangentMode: 0
        weightedMode: 0
        inWeight: {x: 0.33333334, y: 0.33333334, z: 0.33333334}
        outWeight: {x: 0.33333334, y: 0.33333334, z: 0.33333334}
      - serializedVersion: 3
        time: 0.083333336
        value: {x: -3.7705727, y: 0.00000059604645, z: 4.2e-14}
        inSlope: {x: -0.000005722046, y: -0, z: 6.9599995e-13}
        outSlope: {x: -0.00001716614, y: -0.000025749208, z: -1.0800001e-12}
        tangentMode: 0
        weightedMode: 0
        inWeight: {x: 0.33333334, y: 0.33333334, z: 0.33333334}
        outWeight: {x: 0.33333334, y: 0.33333334, z: 0.33333334}
      - serializedVersion: 3
        time: 0.125
        value: {x: -3.7705734, y: -0.00000047683716, z: -3e-15}
        inSlope: {x: -0.00001716614, y: -0.000025749208, z: -1.0800001e-12}
        outSlope: {x: -0.0000057220454, y: 0.00003147125, z: 2.1359997e-12}
        tangentMode: 0
        weightedMode: 0
        inWeight: {x: 0.33333334, y: 0.33333334, z: 0.33333334}
        outWeight: {x: 0.33333334, y: 0.33333334, z: 0.33333334}
      - serializedVersion: 3
        time: 0.16666667
        value: {x: -3.7705736, y: 0.000000834465, z: 8.6e-14}
        inSlope: {x: -0.0000057220454, y: 0.00003147125, z: 2.1359997e-12}
        outSlope: {x: 0.000017166141, y: -0.000020027166, z: -1.8240004e-12}
        tangentMode: 0
        weightedMode: 0
        inWeight: {x: 0.33333334, y: 0.33333334, z: 0.33333334}
        outWeight: {x: 0.33333334, y: 0.33333334, z: 0.33333334}
      - serializedVersion: 3
        time: 0.20833333
        value: {x: -3.770573, y: -1e-15, z: 1e-14}
        inSlope: {x: 0.000017166141, y: -0.000020027166, z: -1.8240004e-12}
        outSlope: {x: -0, y: 0.000011444091, z: 4.0799997e-13}
        tangentMode: 0
        weightedMode: 0
        inWeight: {x: 0.33333334, y: 0.33333334, z: 0.33333334}
        outWeight: {x: 0.33333334, y: 0.33333334, z: 0.33333334}
      - serializedVersion: 3
        time: 0.25
        value: {x: -3.770573, y: 0.00000047683716, z: 2.7e-14}
        inSlope: {x: -0, y: 0.000011444091, z: 4.0799997e-13}
        outSlope: {x: -0.0000057220473, y: -0.000017166141, z: -1.0320002e-12}
        tangentMode: 0
        weightedMode: 0
        inWeight: {x: 0.33333334, y: 0.33333334, z: 0.33333334}
        outWeight: {x: 0.33333334, y: 0.33333334, z: 0.33333334}
      - serializedVersion: 3
        time: 0.29166666
        value: {x: -3.7705731, y: -0.00000023841858, z: -1.6e-14}
        inSlope: {x: -0.0000057220473, y: -0.000017166141, z: -1.0320002e-12}
        outSlope: {x: -0.000057220434, y: 0.000028610217, z: 2.5679988e-12}
        tangentMode: 0
        weightedMode: 0
        inWeight: {x: 0.33333334, y: 0.33333334, z: 0.33333334}
        outWeight: {x: 0.33333334, y: 0.33333334, z: 0.33333334}
      - serializedVersion: 3
        time: 0.33333334
        value: {x: -3.7705755, y: 0.0000009536743, z: 9.1e-14}
        inSlope: {x: -0.000057220434, y: 0.000028610217, z: 2.5679988e-12}
        outSlope: {x: 0.000040054332, y: -0.0000114440945, z: -2.6880006e-12}
        tangentMode: 0
        weightedMode: 0
        inWeight: {x: 0.33333334, y: 0.33333334, z: 0.33333334}
        outWeight: {x: 0.33333334, y: 0.33333334, z: 0.33333334}
      - serializedVersion: 3
        time: 0.375
        value: {x: -3.7705739, y: 0.00000047683716, z: -2.1e-14}
        inSlope: {x: 0.000040054332, y: -0.0000114440945, z: -2.6880006e-12}
        outSlope: {x: -0.000022888189, y: 0.0000057220473, z: 1.1760004e-12}
        tangentMode: 0
        weightedMode: 0
        inWeight: {x: 0.33333334, y: 0.33333334, z: 0.33333334}
        outWeight: {x: 0.33333334, y: 0.33333334, z: 0.33333334}
      - serializedVersion: 3
        time: 0.41666666
        value: {x: -3.7705748, y: 0.00000071525574, z: 2.8e-14}
        inSlope: {x: -0.000022888189, y: 0.0000057220473, z: 1.1760004e-12}
        outSlope: {x: 0.000005722043, y: -0.000011444086, z: -2.8799985e-12}
        tangentMode: 0
        weightedMode: 0
        inWeight: {x: 0.33333334, y: 0.33333334, z: 0.33333334}
        outWeight: {x: 0.33333334, y: 0.33333334, z: 0.33333334}
      - serializedVersion: 3
        time: 0.45833334
        value: {x: -3.7705746, y: 0.00000023841858, z: -9.2e-14}
        inSlope: {x: 0.000005722043, y: -0.000011444086, z: -2.8799985e-12}
        outSlope: {x: 0.000022888189, y: 0.0000114440945, z: 4.176001e-12}
        tangentMode: 0
        weightedMode: 0
        inWeight: {x: 0.33333334, y: 0.33333334, z: 0.33333334}
        outWeight: {x: 0.33333334, y: 0.33333334, z: 0.33333334}
      - serializedVersion: 3
        time: 0.5
        value: {x: -3.7705736, y: 0.00000071525574, z: 8.2e-14}
        inSlope: {x: 0.000022888189, y: 0.0000114440945, z: 4.176001e-12}
        outSlope: {x: -0, y: -0.000005722043, z: -2.4479988e-12}
        tangentMode: 0
        weightedMode: 0
        inWeight: {x: 0.33333334, y: 0.33333334, z: 0.33333334}
        outWeight: {x: 0.33333334, y: 0.33333334, z: 0.33333334}
      - serializedVersion: 3
        time: 0.5416667
        value: {x: -3.7705736, y: 0.00000047683716, z: -2e-14}
        inSlope: {x: -0, y: -0.000005722043, z: -2.4479988e-12}
        outSlope: {x: 0.000011444103, y: -0.0000028610257, z: -6.720006e-13}
        tangentMode: 0
        weightedMode: 0
        inWeight: {x: 0.33333334, y: 0.33333334, z: 0.33333334}
        outWeight: {x: 0.33333334, y: 0.33333334, z: 0.33333334}
      - serializedVersion: 3
        time: 0.5833333
        value: {x: -3.7705731, y: 0.00000035762787, z: -4.8e-14}
        inSlope: {x: 0.000011444103, y: -0.0000028610257, z: -6.720006e-13}
        outSlope: {x: -0.000022888173, y: 0.000008583065, z: -2.6399987e-13}
        tangentMode: 0
        weightedMode: 0
        inWeight: {x: 0.33333334, y: 0.33333334, z: 0.33333334}
        outWeight: {x: 0.33333334, y: 0.33333334, z: 0.33333334}
      - serializedVersion: 3
        time: 0.625
        value: {x: -3.770574, y: 0.00000071525574, z: -5.9e-14}
        inSlope: {x: -0.000022888173, y: 0.000008583065, z: -2.6399987e-13}
        outSlope: {x: 0.00001716613, y: -0.000031471238, z: 5.2799974e-13}
        tangentMode: 0
        weightedMode: 0
        inWeight: {x: 0.33333334, y: 0.33333334, z: 0.33333334}
        outWeight: {x: 0.33333334, y: 0.33333334, z: 0.33333334}
      - serializedVersion: 3
        time: 0.6666667
        value: {x: -3.7705734, y: -0.00000059604645, z: -3.7e-14}
        inSlope: {x: 0.00001716613, y: -0.000031471238, z: 5.2799974e-13}
        outSlope: {x: 0.000011444103, y: 0.000014305128, z: 1.128001e-12}
        tangentMode: 0
        weightedMode: 0
        inWeight: {x: 0.33333334, y: 0.33333334, z: 0.33333334}
        outWeight: {x: 0.33333334, y: 0.33333334, z: 0.33333334}
      - serializedVersion: 3
        time: 0.7083333
        value: {x: -3.770573, y: -1e-15, z: 1e-14}
        inSlope: {x: 0.000011444103, y: 0.000014305128, z: 1.128001e-12}
        outSlope: {x: -0.000022888173, y: 0.000011444086, z: 1.6319991e-12}
        tangentMode: 0
        weightedMode: 0
        inWeight: {x: 0.33333334, y: 0.33333334, z: 0.33333334}
        outWeight: {x: 0.33333334, y: 0.33333334, z: 0.33333334}
      - serializedVersion: 3
        time: 0.75
        value: {x: -3.7705739, y: 0.00000047683716, z: 7.8e-14}
        inSlope: {x: -0.000022888173, y: 0.000011444086, z: 1.6319991e-12}
        outSlope: {x: -0.000011444086, y: -0.0000028610216, z: -3.6239985e-12}
        tangentMode: 0
        weightedMode: 0
        inWeight: {x: 0.33333334, y: 0.33333334, z: 0.33333334}
        outWeight: {x: 0.33333334, y: 0.33333334, z: 0.33333334}
      - serializedVersion: 3
        time: 0.7916667
        value: {x: -3.7705743, y: 0.00000035762787, z: -7.3e-14}
        inSlope: {x: -0.000011444086, y: -0.0000028610216, z: -3.6239985e-12}
        outSlope: {x: 0.00004005436, y: -0, z: -9.840007e-13}
        tangentMode: 0
        weightedMode: 0
        inWeight: {x: 0.33333334, y: 0.33333334, z: 0.33333334}
        outWeight: {x: 0.33333334, y: 0.33333334, z: 0.33333334}
      - serializedVersion: 3
        time: 0.8333333
        value: {x: -3.7705727, y: 0.00000035762787, z: -1.14e-13}
        inSlope: {x: 0.00004005436, y: -0, z: -9.840007e-13}
        outSlope: {x: -0.000022888173, y: 0.0000028610216, z: 2.4479988e-12}
        tangentMode: 0
        weightedMode: 0
        inWeight: {x: 0.33333334, y: 0.33333334, z: 0.33333334}
        outWeight: {x: 0.33333334, y: 0.33333334, z: 0.33333334}
      - serializedVersion: 3
        time: 0.875
        value: {x: -3.7705736, y: 0.00000047683716, z: -1.2e-14}
        inSlope: {x: -0.000022888173, y: 0.0000028610216, z: 2.4479988e-12}
        outSlope: {x: 0.000005722043, y: -0.000008583065, z: -6.2399966e-13}
        tangentMode: 0
        weightedMode: 0
        inWeight: {x: 0.33333334, y: 0.33333334, z: 0.33333334}
        outWeight: {x: 0.33333334, y: 0.33333334, z: 0.33333334}
      - serializedVersion: 3
        time: 0.9166667
        value: {x: -3.7705734, y: 0.00000011920929, z: -3.8e-14}
        inSlope: {x: 0.000005722043, y: -0.000008583065, z: -6.2399966e-13}
        outSlope: {x: 0.0000057220514, y: 0.0000028610257, z: 1.4400013e-12}
        tangentMode: 0
        weightedMode: 0
        inWeight: {x: 0.33333334, y: 0.33333334, z: 0.33333334}
        outWeight: {x: 0.33333334, y: 0.33333334, z: 0.33333334}
      - serializedVersion: 3
        time: 0.9583333
        value: {x: -3.7705731, y: 0.00000023841858, z: 2.2e-14}
        inSlope: {x: 0.0000057220514, y: 0.0000028610257, z: 1.4400013e-12}
        outSlope: {x: 0.0000057220514, y: 0.0000028610257, z: 1.4400013e-12}
        tangentMode: 0
        weightedMode: 0
        inWeight: {x: 0.33333334, y: 0.33333334, z: 0.33333334}
        outWeight: {x: 0.33333334, y: 0.33333334, z: 0.33333334}
      m_PreInfinity: 2
      m_PostInfinity: 2
      m_RotationOrder: 4
    path: Armature/Bone/Bone_001/Bone_002/Bone_003/Bone_004/Bone_005
  m_ScaleCurves:
  - curve:
      serializedVersion: 2
      m_Curve:
      - serializedVersion: 3
        time: 0
        value: {x: 1, y: 1, z: 1}
        inSlope: {x: 0, y: 0, z: 0}
        outSlope: {x: 0, y: 0, z: 0}
        tangentMode: 0
        weightedMode: 0
        inWeight: {x: 0.33333334, y: 0.33333334, z: 0.33333334}
        outWeight: {x: 0.33333334, y: 0.33333334, z: 0.33333334}
      - serializedVersion: 3
        time: 0.9583334
        value: {x: 1, y: 1, z: 1}
        inSlope: {x: 0, y: 0, z: 0}
        outSlope: {x: 0, y: 0, z: 0}
        tangentMode: 0
        weightedMode: 0
        inWeight: {x: 0.33333334, y: 0.33333334, z: 0.33333334}
        outWeight: {x: 0.33333334, y: 0.33333334, z: 0.33333334}
      m_PreInfinity: 2
      m_PostInfinity: 2
      m_RotationOrder: 4
    path: Armature
  - curve:
      serializedVersion: 2
      m_Curve:
      - serializedVersion: 3
        time: 0
        value: {x: 1, y: 1, z: 1}
        inSlope: {x: 0, y: 0, z: 0}
        outSlope: {x: 0, y: 0, z: 0}
        tangentMode: 0
        weightedMode: 0
        inWeight: {x: 0.33333334, y: 0.33333334, z: 0.33333334}
        outWeight: {x: 0.33333334, y: 0.33333334, z: 0.33333334}
      - serializedVersion: 3
        time: 0.9583334
        value: {x: 1, y: 1, z: 1}
        inSlope: {x: 0, y: 0, z: 0}
        outSlope: {x: 0, y: 0, z: 0}
        tangentMode: 0
        weightedMode: 0
        inWeight: {x: 0.33333334, y: 0.33333334, z: 0.33333334}
        outWeight: {x: 0.33333334, y: 0.33333334, z: 0.33333334}
      m_PreInfinity: 2
      m_PostInfinity: 2
      m_RotationOrder: 4
    path: Armature/Bone
  - curve:
      serializedVersion: 2
      m_Curve:
      - serializedVersion: 3
        time: 0
        value: {x: 1, y: 1, z: 1}
        inSlope: {x: 0, y: 0, z: 0}
        outSlope: {x: 0, y: 0, z: 0}
        tangentMode: 0
        weightedMode: 0
        inWeight: {x: 0.33333334, y: 0.33333334, z: 0.33333334}
        outWeight: {x: 0.33333334, y: 0.33333334, z: 0.33333334}
      - serializedVersion: 3
        time: 0.9583334
        value: {x: 1, y: 1, z: 1}
        inSlope: {x: 0, y: 0, z: 0}
        outSlope: {x: 0, y: 0, z: 0}
        tangentMode: 0
        weightedMode: 0
        inWeight: {x: 0.33333334, y: 0.33333334, z: 0.33333334}
        outWeight: {x: 0.33333334, y: 0.33333334, z: 0.33333334}
      m_PreInfinity: 2
      m_PostInfinity: 2
      m_RotationOrder: 4
    path: Armature/Bone/Bone_001
  - curve:
      serializedVersion: 2
      m_Curve:
      - serializedVersion: 3
        time: 0
        value: {x: 1, y: 1, z: 1}
        inSlope: {x: 0, y: 0, z: 0}
        outSlope: {x: 0, y: 0, z: 0}
        tangentMode: 0
        weightedMode: 0
        inWeight: {x: 0.33333334, y: 0.33333334, z: 0.33333334}
        outWeight: {x: 0.33333334, y: 0.33333334, z: 0.33333334}
      - serializedVersion: 3
        time: 0.9583334
        value: {x: 1, y: 1, z: 1}
        inSlope: {x: 0, y: 0, z: 0}
        outSlope: {x: 0, y: 0, z: 0}
        tangentMode: 0
        weightedMode: 0
        inWeight: {x: 0.33333334, y: 0.33333334, z: 0.33333334}
        outWeight: {x: 0.33333334, y: 0.33333334, z: 0.33333334}
      m_PreInfinity: 2
      m_PostInfinity: 2
      m_RotationOrder: 4
    path: Armature/Bone/Bone_001/Bone_002
  - curve:
      serializedVersion: 2
      m_Curve:
      - serializedVersion: 3
        time: 0
        value: {x: 1, y: 1, z: 1}
        inSlope: {x: 0, y: 0, z: 0}
        outSlope: {x: 0, y: 0, z: 0}
        tangentMode: 0
        weightedMode: 0
        inWeight: {x: 0.33333334, y: 0.33333334, z: 0.33333334}
        outWeight: {x: 0.33333334, y: 0.33333334, z: 0.33333334}
      - serializedVersion: 3
        time: 0.9583334
        value: {x: 1, y: 1, z: 1}
        inSlope: {x: 0, y: 0, z: 0}
        outSlope: {x: 0, y: 0, z: 0}
        tangentMode: 0
        weightedMode: 0
        inWeight: {x: 0.33333334, y: 0.33333334, z: 0.33333334}
        outWeight: {x: 0.33333334, y: 0.33333334, z: 0.33333334}
      m_PreInfinity: 2
      m_PostInfinity: 2
      m_RotationOrder: 4
    path: Armature/Bone/Bone_001/Bone_002/Bone_003
  - curve:
      serializedVersion: 2
      m_Curve:
      - serializedVersion: 3
        time: 0
        value: {x: 0.99999994, y: 0.99999994, z: 1}
        inSlope: {x: 0, y: 0, z: 0}
        outSlope: {x: 0, y: 0, z: 0}
        tangentMode: 0
        weightedMode: 0
        inWeight: {x: 0.33333334, y: 0.33333334, z: 0.33333334}
        outWeight: {x: 0.33333334, y: 0.33333334, z: 0.33333334}
      - serializedVersion: 3
        time: 0.9583334
        value: {x: 0.99999994, y: 0.99999994, z: 1}
        inSlope: {x: 0, y: 0, z: 0}
        outSlope: {x: 0, y: 0, z: 0}
        tangentMode: 0
        weightedMode: 0
        inWeight: {x: 0.33333334, y: 0.33333334, z: 0.33333334}
        outWeight: {x: 0.33333334, y: 0.33333334, z: 0.33333334}
      m_PreInfinity: 2
      m_PostInfinity: 2
      m_RotationOrder: 4
    path: Armature/Bone/Bone_001/Bone_002/Bone_003/Bone_004
  - curve:
      serializedVersion: 2
      m_Curve:
      - serializedVersion: 3
        time: 0
        value: {x: 1, y: 1, z: 1}
        inSlope: {x: 0, y: 0, z: 0}
        outSlope: {x: 0, y: 0, z: 0}
        tangentMode: 0
        weightedMode: 0
        inWeight: {x: 0.33333334, y: 0.33333334, z: 0.33333334}
        outWeight: {x: 0.33333334, y: 0.33333334, z: 0.33333334}
      - serializedVersion: 3
        time: 0.9583334
        value: {x: 1, y: 1, z: 1}
        inSlope: {x: 0, y: 0, z: 0}
        outSlope: {x: 0, y: 0, z: 0}
        tangentMode: 0
        weightedMode: 0
        inWeight: {x: 0.33333334, y: 0.33333334, z: 0.33333334}
        outWeight: {x: 0.33333334, y: 0.33333334, z: 0.33333334}
      m_PreInfinity: 2
      m_PostInfinity: 2
      m_RotationOrder: 4
    path: Armature/Bone/Bone_001/Bone_002/Bone_003/Bone_004/Bone_005
  m_FloatCurves: []
  m_PPtrCurves: []
  m_SampleRate: 24
  m_WrapMode: 0
  m_Bounds:
    m_Center: {x: 0, y: 0, z: 0}
    m_Extent: {x: 0, y: 0, z: 0}
  m_ClipBindingConstant:
    genericBindings:
    - serializedVersion: 2
      path: 3756845761
      attribute: 1
      script: {fileID: 0}
      typeID: 4
      customType: 0
      isPPtrCurve: 0
    - serializedVersion: 2
      path: 4101760891
      attribute: 1
      script: {fileID: 0}
      typeID: 4
      customType: 0
      isPPtrCurve: 0
    - serializedVersion: 2
      path: 2184656248
      attribute: 1
      script: {fileID: 0}
      typeID: 4
      customType: 0
      isPPtrCurve: 0
    - serializedVersion: 2
      path: 1060510894
      attribute: 1
      script: {fileID: 0}
      typeID: 4
      customType: 0
      isPPtrCurve: 0
    - serializedVersion: 2
      path: 3375785705
      attribute: 1
      script: {fileID: 0}
      typeID: 4
      customType: 0
      isPPtrCurve: 0
    - serializedVersion: 2
      path: 2683011312
      attribute: 2
      script: {fileID: 0}
      typeID: 4
      customType: 0
      isPPtrCurve: 0
    - serializedVersion: 2
      path: 2104266162
      attribute: 1
      script: {fileID: 0}
      typeID: 4
      customType: 0
      isPPtrCurve: 0
    - serializedVersion: 2
      path: 2683011312
      attribute: 1
      script: {fileID: 0}
      typeID: 4
      customType: 0
      isPPtrCurve: 0
    - serializedVersion: 2
      path: 2104266162
      attribute: 2
      script: {fileID: 0}
      typeID: 4
      customType: 0
      isPPtrCurve: 0
    - serializedVersion: 2
      path: 3756845761
      attribute: 2
      script: {fileID: 0}
      typeID: 4
      customType: 0
      isPPtrCurve: 0
    - serializedVersion: 2
      path: 4101760891
      attribute: 2
      script: {fileID: 0}
      typeID: 4
      customType: 0
      isPPtrCurve: 0
    - serializedVersion: 2
      path: 2184656248
      attribute: 2
      script: {fileID: 0}
      typeID: 4
      customType: 0
      isPPtrCurve: 0
    - serializedVersion: 2
      path: 1060510894
      attribute: 2
      script: {fileID: 0}
      typeID: 4
      customType: 0
      isPPtrCurve: 0
    - serializedVersion: 2
      path: 3375785705
      attribute: 2
      script: {fileID: 0}
      typeID: 4
      customType: 0
      isPPtrCurve: 0
    - serializedVersion: 2
      path: 2104266162
      attribute: 3
      script: {fileID: 0}
      typeID: 4
      customType: 0
      isPPtrCurve: 0
    - serializedVersion: 2
      path: 2683011312
      attribute: 3
      script: {fileID: 0}
      typeID: 4
      customType: 0
      isPPtrCurve: 0
    - serializedVersion: 2
      path: 3756845761
      attribute: 3
      script: {fileID: 0}
      typeID: 4
      customType: 0
      isPPtrCurve: 0
    - serializedVersion: 2
      path: 4101760891
      attribute: 3
      script: {fileID: 0}
      typeID: 4
      customType: 0
      isPPtrCurve: 0
    - serializedVersion: 2
      path: 2184656248
      attribute: 3
      script: {fileID: 0}
      typeID: 4
      customType: 0
      isPPtrCurve: 0
    - serializedVersion: 2
      path: 1060510894
      attribute: 3
      script: {fileID: 0}
      typeID: 4
      customType: 0
      isPPtrCurve: 0
    - serializedVersion: 2
      path: 3375785705
      attribute: 3
      script: {fileID: 0}
      typeID: 4
      customType: 0
      isPPtrCurve: 0
    pptrCurveMapping: []
  m_AnimationClipSettings:
    serializedVersion: 2
    m_AdditiveReferencePoseClip: {fileID: 0}
    m_AdditiveReferencePoseTime: 0
    m_StartTime: 0
    m_StopTime: 0.9583333
    m_OrientationOffsetY: 0
    m_Level: 0
    m_CycleOffset: 0
    m_HasAdditiveReferencePose: 0
    m_LoopTime: 1
    m_LoopBlend: 0
    m_LoopBlendOrientation: 0
    m_LoopBlendPositionY: 0
    m_LoopBlendPositionXZ: 0
    m_KeepOriginalOrientation: 0
    m_KeepOriginalPositionY: 1
    m_KeepOriginalPositionXZ: 0
    m_HeightFromFeet: 0
    m_Mirror: 0
  m_EditorCurves: []
  m_EulerEditorCurves: []
  m_HasGenericRootTransform: 0
  m_HasMotionFloatCurves: 0
  m_Events: []
